<svg xmlns="http://www.w3.org/2000/svg" width="87" height="87" viewBox="0 0 87 87">
    <defs>
        <linearGradient id="a" x1="-2.256%" x2="195.318%" y1="50%" y2="50%">
            <stop offset="0%" stop-color="#ED6D00"/>
            <stop offset="100%" stop-color="#F8E988"/>
        </linearGradient>
    </defs>
    <g fill="none" fill-rule="evenodd">
        <path fill="gray" fill-rule="nonzero" stroke="gray" stroke-width=".899" d="M32.252 60l-.804-1 .844-1.05H64c1.102 0 2-.92 2-2.05V40.98a3.88 3.88 0 0 1-2 .57H48v3.075c0 .567-.447 1.025-1 1.025h-6c-.553 0-1-.458-1-1.025V41.55H24c-.732 0-1.41-.217-2-.57v14.336l-1.707 2.125A4.169 4.169 0 0 1 20 55.9V29.25c0-2.261 1.794-4.1 4-4.1h10V23.1c0-2.261 1.794-4.1 4-4.1h12c2.206 0 4 1.839 4 4.1v2.05h10c2.206 0 4 1.839 4 4.1V55.9c0 2.261-1.794 4.1-4 4.1H32.252zM36 23.1v2.05h16V23.1c0-1.13-.898-2.05-2-2.05H38c-1.103 0-2 .92-2 2.05zm6 20.5h4v-4.1h-4v4.1zm24-6.15v-8.2c0-1.13-.898-2.05-2-2.05H24c-1.102 0-2 .92-2 2.05v8.2c0 1.13.898 2.05 2 2.05h16v-1.025c0-.567.447-1.025 1-1.025h6c.553 0 1 .458 1 1.025V39.5h16c1.102 0 2-.92 2-2.05z"/>
        <path fill="url(#a)" d="M2 30h6.255L16 39.64 8.255 50H2l8.042-10-3.368-4.188z" transform="matrix(-1 0 0 1 38 19)"/>
    </g>
</svg>
