<svg xmlns="http://www.w3.org/2000/svg" width="27" height="21" viewBox="0 0 27 21">
    <g fill="#FFF" fill-rule="evenodd">
        <rect width="27" height="3" rx="1.5"/>
        <rect width="27" height="3" y="9" rx="1.5"/>
        <rect width="11" height="3" y="18" rx="1.5"/>
    </g>
</svg>
