<?xml version="1.0" encoding="utf-8"?>
<!-- Generator: Adobe Illustrator 25.0.0, SVG Export Plug-In . SVG Version: 6.00 Build 0)  -->
<svg version="1.1" id="完稿" xmlns="http://www.w3.org/2000/svg" xmlns:xlink="http://www.w3.org/1999/xlink" x="0px" y="0px"
	 viewBox="0 0 1275.59 1275.59" style="enable-background:new 0 0 1275.59 1275.59;" xml:space="preserve">
<style type="text/css">
	.st0{fill-rule:evenodd;clip-rule:evenodd;fill:#DBBA6E;}
	.st1{fill:#ED1C24;}
	.st2{fill-rule:evenodd;clip-rule:evenodd;fill:#ED1C24;}
	.st3{fill-rule:evenodd;clip-rule:evenodd;fill:#FFCA00;}
	.st4{fill:#004095;}
	.st5{fill:#FFCA00;}
	.st6{fill-rule:evenodd;clip-rule:evenodd;fill:#004095;}
	.st7{fill:#FFFFFF;}
</style>
<g>
	<rect x="0" y="0" class="st0" width="1275.59" height="1275.59"/>
	<g>
		<path class="st1" d="M62.41,922.2v-39.89h8.44l5.07,27.21l5.01-27.21h8.46v39.89h-5.24v-31.4l-5.54,31.4h-5.43l-5.52-31.4v31.4
			H62.41z"/>
		<path class="st1" d="M93.85,922.2v-39.89h20.7v6.75H99.49v8.84h14.02v6.72H99.49v10.86h15.6v6.72H93.85z"/>
		<path class="st1" d="M118.66,922.2v-39.89h8.44l5.07,27.21l5.01-27.21h8.46v39.89h-5.24v-31.4l-5.54,31.4h-5.43l-5.52-31.4v31.4
			H118.66z"/>
		<path class="st1" d="M150.12,882.31h11.16c2.21,0,3.86,0.13,4.94,0.39c1.08,0.26,2.06,0.81,2.91,1.65
			c0.86,0.83,1.57,1.94,2.14,3.33c0.57,1.39,0.86,2.94,0.86,4.67c0,1.87-0.35,3.58-1.06,5.14c-0.7,1.56-1.66,2.73-2.87,3.51
			c1.7,0.71,3.01,1.91,3.92,3.62c0.91,1.71,1.37,3.71,1.37,6.01c0,1.81-0.3,3.58-0.89,5.29c-0.59,1.72-1.4,3.08-2.42,4.11
			c-1.02,1.03-2.28,1.66-3.78,1.89c-0.94,0.14-3.21,0.23-6.8,0.27h-9.5V882.31z M155.75,888.95v9.22h3.7c2.2,0,3.56-0.04,4.1-0.14
			c0.96-0.16,1.72-0.64,2.28-1.43c0.55-0.79,0.83-1.83,0.83-3.12c0-1.23-0.24-2.24-0.71-3.01c-0.48-0.77-1.18-1.24-2.12-1.4
			c-0.56-0.09-2.17-0.14-4.82-0.14H155.75z M155.75,904.81v10.67h5.22c2.03,0,3.32-0.08,3.87-0.24c0.84-0.22,1.52-0.75,2.05-1.59
			c0.53-0.84,0.79-1.97,0.79-3.39c0-1.2-0.2-2.21-0.61-3.05s-0.99-1.44-1.76-1.82s-2.44-0.57-5-0.57H155.75z"/>
		<path class="st1" d="M177.14,922.2v-39.89h20.7v6.75h-15.07v8.84h14.02v6.72h-14.02v10.86h15.6v6.72H177.14z"/>
		<path class="st1" d="M202.04,922.2v-39.89h11.87c2.98,0,5.15,0.36,6.5,1.07c1.35,0.72,2.43,1.99,3.25,3.82
			c0.81,1.83,1.22,3.93,1.22,6.28c0,2.99-0.62,5.47-1.85,7.41c-1.23,1.95-3.07,3.18-5.52,3.69c1.22,1.02,2.22,2.13,3.02,3.35
			c0.79,1.21,1.86,3.37,3.21,6.47l3.41,7.78h-6.74l-4.08-8.68c-1.45-3.1-2.44-5.06-2.97-5.86s-1.1-1.36-1.69-1.66
			c-0.6-0.3-1.54-0.45-2.84-0.45h-1.14v16.65H202.04z M207.68,899.18h4.17c2.71,0,4.39-0.16,5.07-0.49c0.67-0.33,1.2-0.89,1.58-1.69
			c0.38-0.8,0.57-1.79,0.57-2.99c0-1.34-0.25-2.43-0.75-3.25c-0.5-0.83-1.21-1.35-2.12-1.57c-0.46-0.09-1.83-0.13-4.11-0.13h-4.4
			V899.18z"/>
		<path class="st1" d="M247.33,902.5c0-4.06,0.43-7.47,1.28-10.23c0.63-2.03,1.5-3.85,2.6-5.47c1.1-1.62,2.3-2.81,3.61-3.59
			c1.74-1.05,3.75-1.58,6.02-1.58c4.11,0,7.41,1.82,9.88,5.47c2.47,3.65,3.7,8.72,3.7,15.21c0,6.44-1.23,11.48-3.68,15.12
			c-2.45,3.64-5.73,5.45-9.83,5.45c-4.15,0-7.45-1.81-9.9-5.43C248.56,913.83,247.33,908.85,247.33,902.5z M253.14,902.23
			c0,4.52,0.73,7.94,2.19,10.27c1.46,2.33,3.31,3.5,5.56,3.5c2.25,0,4.09-1.16,5.53-3.47c1.44-2.31,2.16-5.78,2.16-10.41
			c0-4.57-0.7-7.98-2.11-10.23c-1.4-2.25-3.27-3.37-5.59-3.37s-4.2,1.14-5.62,3.42C253.85,894.21,253.14,897.64,253.14,902.23z"/>
		<path class="st1" d="M277.72,922.2v-39.89h19.14v6.75h-13.5v9.44h11.66v6.75h-11.66v16.95H277.72z"/>
		<path class="st1" d="M337.66,907.54l5.47,2.48c-0.84,4.35-2.23,7.59-4.18,9.7c-1.95,2.11-4.42,3.17-7.42,3.17
			c-3.71,0-6.76-1.81-9.14-5.43c-2.39-3.62-3.58-8.57-3.58-14.84c0-6.64,1.2-11.8,3.6-15.47c2.4-3.67,5.55-5.51,9.47-5.51
			c3.42,0,6.19,1.44,8.32,4.33c1.27,1.71,2.22,4.15,2.86,7.35l-5.58,1.91c-0.33-2.07-1.02-3.7-2.07-4.9c-1.05-1.2-2.32-1.8-3.82-1.8
			c-2.07,0-3.75,1.06-5.04,3.18c-1.29,2.12-1.93,5.56-1.93,10.31c0,5.04,0.63,8.64,1.9,10.77c1.27,2.14,2.92,3.21,4.95,3.21
			c1.5,0,2.79-0.68,3.87-2.04C336.42,912.6,337.19,910.46,337.66,907.54z"/>
		<path class="st1" d="M346.84,922.2v-39.89h20.7v6.75h-15.07v8.84h14.02v6.72h-14.02v10.86h15.6v6.72H346.84z"/>
		<path class="st1" d="M371.78,922.2v-39.89h5.49l11.43,26.64v-26.64h5.24v39.89h-5.66l-11.26-26.01v26.01H371.78z"/>
		<path class="st1" d="M405.05,922.2v-33.14h-8.28v-6.75h22.19v6.75h-8.27v33.14H405.05z"/>
		<path class="st1" d="M421.48,922.2v-39.89h11.87c2.98,0,5.15,0.36,6.5,1.07c1.35,0.72,2.43,1.99,3.25,3.82
			c0.81,1.83,1.22,3.93,1.22,6.28c0,2.99-0.62,5.47-1.85,7.41c-1.23,1.95-3.07,3.18-5.52,3.69c1.22,1.02,2.22,2.13,3.02,3.35
			c0.79,1.21,1.86,3.37,3.21,6.47l3.41,7.78h-6.74l-4.08-8.68c-1.45-3.1-2.44-5.06-2.97-5.86c-0.53-0.81-1.1-1.36-1.69-1.66
			c-0.6-0.3-1.54-0.45-2.84-0.45h-1.14v16.65H421.48z M427.11,899.18h4.17c2.71,0,4.39-0.16,5.07-0.49c0.67-0.33,1.2-0.89,1.58-1.69
			c0.38-0.8,0.57-1.79,0.57-2.99c0-1.34-0.25-2.43-0.75-3.25c-0.5-0.83-1.21-1.35-2.12-1.57c-0.46-0.09-1.83-0.13-4.11-0.13h-4.4
			V899.18z"/>
		<path class="st1" d="M473.68,922.2h-6.13l-2.44-9.06h-11.16l-2.3,9.06h-5.98l10.88-39.89h5.96L473.68,922.2z M463.3,906.42
			l-3.85-14.8l-3.77,14.8H463.3z"/>
		<path class="st1" d="M475.69,922.2v-39.56h5.64v32.84h14.02v6.72H475.69z"/>
		<path class="st1" d="M516.92,882.31h10.3c2.32,0,4.1,0.25,5.31,0.76c1.64,0.69,3.04,1.92,4.21,3.67c1.17,1.76,2.06,3.91,2.67,6.46
			s0.91,5.69,0.91,9.43c0,3.28-0.29,6.11-0.86,8.49c-0.7,2.9-1.7,5.25-2.99,7.05c-0.98,1.36-2.3,2.42-3.96,3.18
			c-1.24,0.56-2.91,0.84-4.99,0.84h-10.61V882.31z M522.56,889.06v26.42h4.21c1.57,0,2.71-0.13,3.41-0.38
			c0.91-0.33,1.67-0.88,2.28-1.66c0.6-0.78,1.1-2.06,1.48-3.85c0.38-1.79,0.57-4.22,0.57-7.31c0-3.08-0.19-5.45-0.57-7.1
			c-0.38-1.65-0.91-2.94-1.6-3.86c-0.69-0.93-1.56-1.55-2.61-1.88c-0.79-0.25-2.33-0.38-4.63-0.38H522.56z"/>
		<path class="st1" d="M543.98,922.2v-39.89h20.7v6.75h-15.07v8.84h14.02v6.72h-14.02v10.86h15.6v6.72H543.98z"/>
		<path class="st1" d="M568.87,922.2v-39.89h9.05c3.43,0,5.66,0.2,6.71,0.6c1.6,0.6,2.94,1.9,4.02,3.9s1.62,4.59,1.62,7.77
			c0,2.45-0.31,4.51-0.93,6.18c-0.62,1.67-1.41,2.98-2.37,3.93c-0.96,0.95-1.93,1.58-2.92,1.89c-1.35,0.38-3.3,0.57-5.85,0.57h-3.68
			v15.05H568.87z M574.51,889.06v11.32h3.09c2.22,0,3.71-0.21,4.46-0.63c0.75-0.42,1.34-1.07,1.76-1.96
			c0.43-0.89,0.64-1.92,0.64-3.1c0-1.45-0.3-2.65-0.9-3.59c-0.6-0.94-1.35-1.53-2.27-1.77c-0.67-0.18-2.03-0.27-4.06-0.27H574.51z"
			/>
		<path class="st1" d="M592.61,902.5c0-4.06,0.43-7.47,1.28-10.23c0.63-2.03,1.5-3.85,2.6-5.47c1.1-1.62,2.3-2.81,3.61-3.59
			c1.74-1.05,3.75-1.58,6.02-1.58c4.11,0,7.41,1.82,9.88,5.47c2.47,3.65,3.7,8.72,3.7,15.21c0,6.44-1.23,11.48-3.68,15.12
			c-2.45,3.64-5.73,5.45-9.83,5.45c-4.15,0-7.45-1.81-9.9-5.43C593.84,913.83,592.61,908.85,592.61,902.5z M598.42,902.23
			c0,4.52,0.73,7.94,2.19,10.27c1.46,2.33,3.31,3.5,5.56,3.5c2.25,0,4.09-1.16,5.53-3.47c1.44-2.31,2.16-5.78,2.16-10.41
			c0-4.57-0.7-7.98-2.11-10.23c-1.4-2.25-3.27-3.37-5.59-3.37c-2.32,0-4.2,1.14-5.62,3.42
			C599.13,894.21,598.42,897.64,598.42,902.23z"/>
		<path class="st1" d="M621.54,909.22l5.49-0.76c0.33,2.63,1,4.56,2.01,5.8c1.01,1.23,2.37,1.85,4.09,1.85
			c1.82,0,3.18-0.55,4.1-1.65c0.92-1.1,1.38-2.38,1.38-3.85c0-0.94-0.19-1.75-0.58-2.41c-0.39-0.66-1.06-1.24-2.03-1.73
			c-0.66-0.33-2.17-0.91-4.51-1.74c-3.02-1.07-5.14-2.39-6.36-3.95c-1.71-2.19-2.57-4.87-2.57-8.03c0-2.03,0.4-3.93,1.21-5.7
			c0.81-1.77,1.97-3.12,3.49-4.04c1.52-0.92,3.35-1.39,5.49-1.39c3.51,0,6.14,1.1,7.91,3.29c1.77,2.2,2.7,5.13,2.79,8.79l-5.64,0.35
			c-0.24-2.05-0.76-3.52-1.55-4.42c-0.79-0.9-1.98-1.35-3.57-1.35c-1.64,0-2.92,0.48-3.85,1.44c-0.6,0.62-0.9,1.44-0.9,2.48
			c0,0.94,0.28,1.75,0.84,2.42c0.71,0.85,2.44,1.74,5.18,2.67c2.74,0.92,4.77,1.88,6.09,2.87c1.32,0.99,2.34,2.34,3.09,4.05
			c0.74,1.72,1.11,3.83,1.11,6.35c0,2.29-0.44,4.43-1.33,6.42c-0.89,1.99-2.15,3.48-3.77,4.45s-3.65,1.46-6.08,1.46
			c-3.53,0-6.24-1.16-8.13-3.5C623.03,917.08,621.9,913.68,621.54,909.22z"/>
		<path class="st1" d="M647.68,922.2v-39.89h5.64v39.89H647.68z"/>
		<path class="st1" d="M663.84,922.2v-33.14h-8.29v-6.75h22.19v6.75h-8.27v33.14H663.84z"/>
		<path class="st1" d="M699.5,922.2v-39.89h5.64v39.89H699.5z"/>
		<path class="st1" d="M709.43,922.2v-39.89h5.49l11.43,26.64v-26.64h5.24v39.89h-5.66l-11.26-26.01v26.01H709.43z"/>
		<path class="st1" d="M734.98,909.22l5.49-0.76c0.33,2.63,1,4.56,2.01,5.8c1.01,1.23,2.37,1.85,4.09,1.85
			c1.82,0,3.18-0.55,4.1-1.65c0.92-1.1,1.38-2.38,1.38-3.85c0-0.94-0.19-1.75-0.58-2.41c-0.39-0.66-1.06-1.24-2.03-1.73
			c-0.66-0.33-2.17-0.91-4.51-1.74c-3.02-1.07-5.14-2.39-6.36-3.95c-1.71-2.19-2.57-4.87-2.57-8.03c0-2.03,0.4-3.93,1.21-5.7
			c0.8-1.77,1.97-3.12,3.48-4.04c1.52-0.92,3.35-1.39,5.49-1.39c3.5,0,6.14,1.1,7.91,3.29c1.77,2.2,2.7,5.13,2.79,8.79l-5.64,0.35
			c-0.24-2.05-0.76-3.52-1.55-4.42c-0.79-0.9-1.98-1.35-3.57-1.35c-1.64,0-2.92,0.48-3.85,1.44c-0.6,0.62-0.9,1.44-0.9,2.48
			c0,0.94,0.28,1.75,0.84,2.42c0.71,0.85,2.44,1.74,5.18,2.67c2.74,0.92,4.77,1.88,6.09,2.87c1.32,0.99,2.34,2.34,3.09,4.05
			c0.74,1.72,1.11,3.83,1.11,6.35c0,2.29-0.44,4.43-1.33,6.42c-0.89,1.99-2.15,3.48-3.77,4.45c-1.62,0.97-3.65,1.46-6.08,1.46
			c-3.53,0-6.24-1.16-8.13-3.5C736.48,917.08,735.35,913.68,734.98,909.22z"/>
		<path class="st1" d="M761.26,882.31h5.64v21.6c0,3.43,0.07,5.65,0.21,6.67c0.24,1.63,0.82,2.94,1.73,3.93
			c0.91,0.99,2.15,1.48,3.72,1.48c1.6,0,2.81-0.47,3.62-1.4s1.3-2.08,1.47-3.44c0.17-1.36,0.25-3.62,0.25-6.78v-22.07h5.64v20.95
			c0,4.79-0.15,8.17-0.46,10.15c-0.3,1.98-0.87,3.65-1.68,5.01c-0.82,1.36-1.91,2.44-3.29,3.25c-1.37,0.81-3.16,1.21-5.37,1.21
			c-2.67,0-4.69-0.44-6.07-1.32c-1.38-0.88-2.47-2.02-3.27-3.43c-0.8-1.41-1.33-2.88-1.58-4.42c-0.37-2.29-0.55-5.66-0.55-10.12
			V882.31z"/>
		<path class="st1" d="M788.36,922.2v-39.89h11.87c2.98,0,5.15,0.36,6.51,1.07c1.35,0.72,2.43,1.99,3.25,3.82
			c0.81,1.83,1.22,3.93,1.22,6.28c0,2.99-0.62,5.47-1.85,7.41c-1.23,1.95-3.07,3.18-5.52,3.69c1.22,1.02,2.23,2.13,3.02,3.35
			c0.79,1.21,1.86,3.37,3.21,6.47l3.41,7.78h-6.74l-4.08-8.68c-1.45-3.1-2.44-5.06-2.97-5.86s-1.1-1.36-1.69-1.66
			c-0.6-0.3-1.54-0.45-2.84-0.45H794v16.65H788.36z M794,899.18h4.17c2.7,0,4.39-0.16,5.07-0.49c0.67-0.33,1.2-0.89,1.58-1.69
			c0.38-0.8,0.57-1.79,0.57-2.99c0-1.34-0.25-2.43-0.75-3.25c-0.5-0.83-1.21-1.35-2.12-1.57c-0.46-0.09-1.83-0.13-4.11-0.13H794
			V899.18z"/>
		<path class="st1" d="M840.56,922.2h-6.13l-2.44-9.06h-11.16l-2.3,9.06h-5.98l10.88-39.89h5.96L840.56,922.2z M830.18,906.42
			l-3.85-14.8l-3.77,14.8H830.18z"/>
		<path class="st1" d="M842.47,922.2v-39.89h5.49l11.43,26.64v-26.64h5.24v39.89h-5.66l-11.26-26.01v26.01H842.47z"/>
		<path class="st1" d="M887.32,907.54l5.47,2.48c-0.84,4.35-2.23,7.59-4.18,9.7c-1.95,2.11-4.42,3.17-7.42,3.17
			c-3.71,0-6.76-1.81-9.14-5.43c-2.39-3.62-3.58-8.57-3.58-14.84c0-6.64,1.2-11.8,3.6-15.47c2.4-3.67,5.56-5.51,9.47-5.51
			c3.42,0,6.19,1.44,8.32,4.33c1.27,1.71,2.22,4.15,2.86,7.35l-5.58,1.91c-0.33-2.07-1.02-3.7-2.07-4.9c-1.05-1.2-2.32-1.8-3.82-1.8
			c-2.07,0-3.75,1.06-5.04,3.18c-1.29,2.12-1.93,5.56-1.93,10.31c0,5.04,0.64,8.64,1.9,10.77c1.27,2.14,2.92,3.21,4.95,3.21
			c1.5,0,2.79-0.68,3.87-2.04C886.08,912.6,886.85,910.46,887.32,907.54z"/>
		<path class="st1" d="M896.49,922.2v-39.89h20.7v6.75h-15.07v8.84h14.02v6.72h-14.02v10.86h15.6v6.72H896.49z"/>
		<path class="st1" d="M958.66,907.54l5.47,2.48c-0.84,4.35-2.23,7.59-4.18,9.7c-1.95,2.11-4.42,3.17-7.42,3.17
			c-3.71,0-6.76-1.81-9.14-5.43c-2.39-3.62-3.58-8.57-3.58-14.84c0-6.64,1.2-11.8,3.6-15.47c2.4-3.67,5.56-5.51,9.47-5.51
			c3.42,0,6.19,1.44,8.32,4.33c1.27,1.71,2.22,4.15,2.86,7.35l-5.58,1.91c-0.33-2.07-1.02-3.7-2.07-4.9c-1.05-1.2-2.32-1.8-3.82-1.8
			c-2.07,0-3.75,1.06-5.04,3.18c-1.29,2.12-1.93,5.56-1.93,10.31c0,5.04,0.64,8.64,1.9,10.77c1.27,2.14,2.92,3.21,4.95,3.21
			c1.5,0,2.79-0.68,3.87-2.04C957.41,912.6,958.19,910.46,958.66,907.54z"/>
		<path class="st1" d="M966.69,902.5c0-4.06,0.43-7.47,1.28-10.23c0.64-2.03,1.5-3.85,2.6-5.47c1.1-1.62,2.3-2.81,3.61-3.59
			c1.74-1.05,3.75-1.58,6.02-1.58c4.11,0,7.41,1.82,9.88,5.47c2.47,3.65,3.7,8.72,3.7,15.21c0,6.44-1.23,11.48-3.68,15.12
			c-2.45,3.64-5.73,5.45-9.83,5.45c-4.15,0-7.45-1.81-9.9-5.43C967.91,913.83,966.69,908.85,966.69,902.5z M972.5,902.23
			c0,4.52,0.73,7.94,2.19,10.27c1.46,2.33,3.32,3.5,5.56,3.5s4.09-1.16,5.53-3.47c1.44-2.31,2.16-5.78,2.16-10.41
			c0-4.57-0.7-7.98-2.1-10.23c-1.4-2.25-3.27-3.37-5.59-3.37c-2.32,0-4.2,1.14-5.62,3.42C973.21,894.21,972.5,897.64,972.5,902.23z"
			/>
		<path class="st1" d="M997.06,922.2v-39.89h11.87c2.98,0,5.15,0.36,6.51,1.07c1.35,0.72,2.43,1.99,3.25,3.82
			c0.81,1.83,1.22,3.93,1.22,6.28c0,2.99-0.62,5.47-1.85,7.41c-1.23,1.95-3.07,3.18-5.52,3.69c1.22,1.02,2.23,2.13,3.02,3.35
			c0.79,1.21,1.86,3.37,3.21,6.47l3.41,7.78h-6.74l-4.08-8.68c-1.45-3.1-2.44-5.06-2.97-5.86c-0.53-0.81-1.1-1.36-1.69-1.66
			c-0.6-0.3-1.54-0.45-2.84-0.45h-1.14v16.65H997.06z M1002.7,899.18h4.17c2.7,0,4.39-0.16,5.07-0.49c0.67-0.33,1.2-0.89,1.58-1.69
			c0.38-0.8,0.57-1.79,0.57-2.99c0-1.34-0.25-2.43-0.75-3.25c-0.5-0.83-1.21-1.35-2.12-1.57c-0.46-0.09-1.83-0.13-4.11-0.13h-4.4
			V899.18z"/>
		<path class="st1" d="M1024.08,922.2v-39.89h9.05c3.43,0,5.66,0.2,6.7,0.6c1.6,0.6,2.94,1.9,4.02,3.9c1.08,2,1.62,4.59,1.62,7.77
			c0,2.45-0.31,4.51-0.93,6.18c-0.62,1.67-1.41,2.98-2.37,3.93c-0.96,0.95-1.93,1.58-2.92,1.89c-1.35,0.38-3.3,0.57-5.85,0.57h-3.68
			v15.05H1024.08z M1029.72,889.06v11.32h3.09c2.22,0,3.71-0.21,4.46-0.63c0.75-0.42,1.34-1.07,1.76-1.96
			c0.43-0.89,0.64-1.92,0.64-3.1c0-1.45-0.3-2.65-0.9-3.59c-0.6-0.94-1.35-1.53-2.27-1.77c-0.67-0.18-2.03-0.27-4.06-0.27H1029.72z"
			/>
		<path class="st1" d="M1047.82,902.5c0-4.06,0.43-7.47,1.28-10.23c0.64-2.03,1.5-3.85,2.6-5.47c1.1-1.62,2.3-2.81,3.61-3.59
			c1.74-1.05,3.75-1.58,6.02-1.58c4.11,0,7.41,1.82,9.88,5.47c2.47,3.65,3.7,8.72,3.7,15.21c0,6.44-1.23,11.48-3.68,15.12
			c-2.45,3.64-5.73,5.45-9.83,5.45c-4.15,0-7.45-1.81-9.9-5.43C1049.05,913.83,1047.82,908.85,1047.82,902.5z M1053.63,902.23
			c0,4.52,0.73,7.94,2.19,10.27c1.46,2.33,3.32,3.5,5.56,3.5c2.25,0,4.09-1.16,5.53-3.47c1.44-2.31,2.16-5.78,2.16-10.41
			c0-4.57-0.7-7.98-2.1-10.23c-1.4-2.25-3.27-3.37-5.59-3.37c-2.32,0-4.2,1.14-5.62,3.42
			C1054.35,894.21,1053.63,897.64,1053.63,902.23z"/>
		<path class="st1" d="M1078.2,922.2v-39.89h11.87c2.98,0,5.15,0.36,6.51,1.07c1.35,0.72,2.43,1.99,3.25,3.82
			c0.81,1.83,1.22,3.93,1.22,6.28c0,2.99-0.62,5.47-1.85,7.41c-1.23,1.95-3.07,3.18-5.52,3.69c1.22,1.02,2.23,2.13,3.02,3.35
			c0.79,1.21,1.86,3.37,3.21,6.47l3.41,7.78h-6.74l-4.08-8.68c-1.45-3.1-2.44-5.06-2.97-5.86s-1.1-1.36-1.69-1.66
			c-0.6-0.3-1.54-0.45-2.84-0.45h-1.14v16.65H1078.2z M1083.84,899.18h4.17c2.7,0,4.39-0.16,5.07-0.49c0.67-0.33,1.2-0.89,1.58-1.69
			c0.38-0.8,0.57-1.79,0.57-2.99c0-1.34-0.25-2.43-0.75-3.25c-0.5-0.83-1.21-1.35-2.12-1.57c-0.46-0.09-1.83-0.13-4.11-0.13h-4.4
			V899.18z"/>
		<path class="st1" d="M1130.4,922.2h-6.13l-2.44-9.06h-11.16l-2.3,9.06h-5.98l10.88-39.89h5.96L1130.4,922.2z M1120.02,906.42
			l-3.85-14.8l-3.77,14.8H1120.02z"/>
		<path class="st1" d="M1135.65,922.2v-33.14h-8.29v-6.75h22.19v6.75h-8.27v33.14H1135.65z"/>
		<path class="st1" d="M1151.88,922.2v-39.89h5.64v39.89H1151.88z"/>
		<path class="st1" d="M1160.62,902.5c0-4.06,0.43-7.47,1.28-10.23c0.64-2.03,1.5-3.85,2.6-5.47c1.1-1.62,2.3-2.81,3.61-3.59
			c1.74-1.05,3.75-1.58,6.02-1.58c4.11,0,7.41,1.82,9.88,5.47c2.47,3.65,3.7,8.72,3.7,15.21c0,6.44-1.23,11.48-3.68,15.12
			c-2.45,3.64-5.73,5.45-9.83,5.45c-4.15,0-7.45-1.81-9.9-5.43C1161.84,913.83,1160.62,908.85,1160.62,902.5z M1166.43,902.23
			c0,4.52,0.73,7.94,2.19,10.27c1.46,2.33,3.32,3.5,5.56,3.5c2.25,0,4.09-1.16,5.53-3.47c1.44-2.31,2.16-5.78,2.16-10.41
			c0-4.57-0.7-7.98-2.1-10.23c-1.4-2.25-3.27-3.37-5.59-3.37c-2.32,0-4.2,1.14-5.62,3.42
			C1167.14,894.21,1166.43,897.64,1166.43,902.23z"/>
		<path class="st1" d="M1191.03,922.2v-39.89h5.49l11.43,26.64v-26.64h5.24v39.89h-5.66l-11.26-26.01v26.01H1191.03z"/>
	</g>
	<rect x="624.47" y="708.37" class="st2" width="26.65" height="26.65"/>
	<rect x="624.47" y="948.26" class="st2" width="26.65" height="26.65"/>
	<g>
		<path class="st1" d="M66.85,828.28l-4.96-12.94c13.23-2.95,23.65-6.26,31.27-9.92c1.65-0.86,3.27-1.65,4.85-2.37l-31.7,3.99
			c-1.01-3.67-2.26-7.66-3.77-11.97l7.22-0.75c4.24-4.17,8.41-8.77,12.51-13.8c-0.72-2.73-1.55-5.64-2.48-8.74l10.46-0.75
			c3.45-4.38,6.72-9.09,9.81-14.13l9.81,6.9c-0.93,1.73-2.09,3.7-3.45,5.93l14.99-1.19c-0.79-0.57-1.33-1.01-1.62-1.29l8.3-8.52
			c6.9,5.39,12.73,10.78,17.47,16.18l-8.84,7.87c-1.22-1.29-2.52-2.62-3.88-3.99l-3.02,0.43l6.36,4.31
			c-1.01,2.01-2.3,4.24-3.88,6.69l8.74-0.75c-0.72-0.79-1.44-1.51-2.16-2.16l8.95-8.09c5.39,4.82,10.93,11.36,16.61,19.63
			l-9.49,7.55c-1.65-2.37-3.24-4.46-4.74-6.25l-20.49,2.59c12.22,5.61,24.62,9.6,37.2,11.97l-5.07,13.05
			c-17.76-4.89-33.75-11.75-47.99-20.6C104.31,814.34,88.63,821.38,66.85,828.28z M119.48,821.6
			c-16.97,10.86-32.24,17.15-45.83,18.87l-4.53-11.86c16.1-2.52,30.55-8.3,43.35-17.36L119.48,821.6z M122.28,840.36
			c7.69-3.81,15.67-9.17,23.94-16.07l8.2,9.92c-17.76,14.52-37.53,23.51-59.31,26.96l-3.02-10.78c-2.95,0.79-5.72,1.4-8.3,1.83
			l-4.96-11.86c18.76-3.52,35.37-10.89,49.82-22.11l7.33,9.92c-10.5,7.48-19.88,12.94-28.15,16.39c-2.3,0.94-4.42,1.83-6.36,2.7
			C107.51,845.97,114.44,843.67,122.28,840.36z M116.02,791.83c2.87-3.95,5.72-8.02,8.52-12.19l-38.17,3.56l5.39,4.75
			c-1.01,1.29-2.09,2.73-3.23,4.31l6.04-0.65c-0.65-0.79-1.12-1.33-1.4-1.62l9.7-6.9c3.31,4.03,5.75,7.12,7.33,9.27L116.02,791.83z"
			/>
		<path class="st1" d="M182.92,784.61v-12.83h12.62v-9.7h12.83v9.49h19.73c1.08,0,1.98,0.22,2.7,0.65c0.79,0.43,1.33,1.12,1.62,2.05
			c0.43,1.01,0.65,2.62,0.65,4.85c0,15.6-0.14,29.37-0.43,41.3c-0.65,20.49-3.7,32.82-9.17,36.99c-3.74,2.95-11.43,2.81-23.08-0.43
			l-0.32-15.53c4.82,1.73,8.52,2.8,11.11,3.23c2.52,0.43,4.02,0.29,4.53-0.43c1.08-1.22,1.98-3.59,2.7-7.12
			c0.36-2.09,0.65-4.78,0.86-8.09c0.86-26.67,0.86-41.12,0-43.35c-0.43-0.72-1.01-1.08-1.73-1.08h-9.38
			c-0.29,4.6-1.19,13.8-2.7,27.61c-3.45,20.7-8.09,35.8-13.91,45.29l-13.26-3.02c11-20.49,16.71-43.78,17.15-69.88H182.92z
			 M275.55,857.51h-33.86c-2.3,0-3.45-1.19-3.45-3.56v-84.76c0.07-2.3,1.22-3.45,3.45-3.45h33.86c2.37,0.07,3.56,1.22,3.56,3.45
			v84.76C279.11,856.32,277.92,857.51,275.55,857.51z M251.61,778.57c-0.36,0.07-0.54,0.25-0.54,0.54v64.92
			c0.07,0.43,0.25,0.65,0.54,0.65h14.02c0.43,0,0.65-0.22,0.65-0.65v-64.92c0-0.36-0.22-0.54-0.65-0.54H251.61z"/>
		<path class="st1" d="M329.61,829.47v-12.83h26.1c-1.58-3.31-3.56-6.94-5.93-10.89h6.69l11.75-8.84h-31.17v-9.92
			c-2.95,6.04-7.15,12.19-12.62,18.44c-0.5,0.36-0.9,0.75-1.19,1.19v51.33h-12.83v-39.25c-1.73,1.44-3.49,2.84-5.28,4.21
			l-10.35-8.74c7.62-5.68,14.56-11.79,20.81-18.33c4.53-5.46,7.91-10.78,10.14-15.96h-25.02v-12.83h29.12
			c0.72-2.8,1.44-5.64,2.16-8.52l12.94,2.8c-0.43,2.01-0.86,3.92-1.29,5.72h50.79v12.83h-54.57c-0.36,1.15-0.75,2.3-1.19,3.45
			c-0.29,0.36-0.47,0.75-0.54,1.19h44.97l10.35,9.27l-24.8,19.73c0.43,1.01,0.86,2.05,1.29,3.13h25.77v12.83h-21.78
			c1.01,4.6,1.51,8.66,1.51,12.19c-0.29,7.98-2.91,13.48-7.87,16.5c-6.69,4.1-17.04,3.67-31.06-1.3l0.54-14.77
			c7.12,3.17,12.33,4.89,15.64,5.18c2.95,0.29,5-0.04,6.15-0.97c1.29-1.01,2.16-2.19,2.59-3.56c0.86-3.02,0.54-7.44-0.97-13.26
			H329.61z"/>
		<path class="st1" d="M433.61,847.15c1.08-0.65,1.62-1.33,1.62-2.05v-21.24H415.6v-11.97h48.85v11.97h-16.39v28.36
			c-0.07,2.3-0.79,4.03-2.16,5.18c-1.8,1.51-3.7,2.52-5.72,3.02c-3.81,1.01-9.42,0-16.82-3.02v-9.16c-0.58,1.01-1.11,1.98-1.62,2.91
			l-10.78-5.5c4.67-8.19,7.91-15.02,9.71-20.49l11,4.96c-1.51,4.39-3.67,9.27-6.47,14.67C430.08,846.79,432.89,847.59,433.61,847.15
			z M434.36,777.71H415.6v-11.97h18.76v-5.39h12.83v5.39h17.25v11.97h-17.25v3.56h13.37v11.97h-42.81v-11.97h16.61V777.71z
			 M457.98,796.36v11.97H421.2v-11.97H457.98z M465.85,861.07l-10.57-9.38c3.67-2.3,6.94-4.96,9.81-7.98l-7.76,3.02
			c-2.3-5.68-4.96-10.78-7.98-15.31l10.78-5.07c3.52,6.04,6.04,10.89,7.55,14.56c9.13-11.36,13.69-26.1,13.69-44.21v-15.74h-1.73
			c-1.58,9.85-4.21,18.23-7.87,25.13l-12.4-3.13c6.54-13.23,9.78-27.17,9.71-41.84h12.4c-0.22,2.52-0.36,5-0.43,7.44h26.1l7.98,4.53
			c-1.51,14.6-3.6,27.07-6.25,37.42l-12.51-2.05c2.95-9.63,5-18.8,6.15-27.5h-8.3v15.74c0,2.37-0.14,4.89-0.43,7.55
			c1.73,11.22,4.1,19.95,7.12,26.2c3.52,7.4,9.2,15.2,17.04,23.4l-12.62,6.47c-6.83-8.27-12.62-17.72-17.36-28.36
			C482.71,844.24,475.34,853.95,465.85,861.07z"/>
		<path class="st1" d="M598.74,858.37h-12.83v-26.53c-8.77,9.49-17.36,16.5-25.77,21.03l-7.98-8.95v14.45h-12.83v-48.2l-11.43-5.07
			c10.06-13.8,16.32-28.79,18.76-44.97l12.83,2.37c0.5-1.01,1.55-1.51,3.13-1.51h59.74c2.37,0.07,3.56,1.22,3.56,3.45v33
			c0,2.37-1.19,3.56-3.56,3.56h-23.62v5.28h30.19v12.83h-25.45c7.12,8.84,17.25,17.15,30.41,24.91l-10.24,9.17
			c-11-7.69-19.3-14.77-24.91-21.24V858.37z M580.95,819.12h-27.17v-12.83h32.13V801h-23.29c-2.3,0-3.45-1.19-3.45-3.56v-32.35
			c-2.01,9.35-4.35,17.36-7.01,24.05v52.95c7.04-3.88,13.19-8.12,18.44-12.72C574.19,826.27,577.64,822.86,580.95,819.12z
			 M572.53,773.83c-0.36,0.07-0.54,0.25-0.54,0.54v13.16c0.07,0.43,0.25,0.65,0.54,0.65h39.9c0.43,0,0.65-0.22,0.65-0.65v-13.16
			c0-0.36-0.22-0.54-0.65-0.54H572.53z"/>
		<path class="st1" d="M690.44,847.26c-3.45,5.39-6.9,9.7-10.35,12.94l-11-7.23c8.48-8.55,14.56-18.12,18.23-28.68h-6.47
			c-0.22,0-0.36,0-0.43,0c-0.5,5.25-2.05,9.27-4.64,12.08c-2.01,2.16-4.24,3.49-6.68,3.99c-3.31,0.58-6.29,0.32-8.95-0.75v18.66
			h-11.97v-95.44c0-1.37,0.68-2.05,2.05-2.05h21.57l7.12,5.18l-1.94,8.41c15.89-5.25,26.31-11.11,31.27-17.58l11.11,3.67
			c-0.5,0.65-0.9,1.22-1.19,1.73c8.91,5.46,19.52,9.49,31.81,12.08L745,786.34c-4.53-1.51-8.66-2.95-12.4-4.31v8.2h-40.65v-8.84
			c-4.17,2.01-8.66,4.03-13.48,6.04l-3.02-6.58l-2.48,11.54c-0.58,2.8-0.4,4.96,0.54,6.47c2.51,4.74,4.42,9.06,5.71,12.94v-17.25
			c0-1.08,0.54-1.62,1.62-1.62h28.47c1.15,0,1.73,0.54,1.73,1.62v28.04c0,1.15-0.58,1.73-1.73,1.73h-20.06l10.35,3.67
			c-0.94,2.37-1.87,4.64-2.8,6.79c4.96,4.03,9.74,8.3,14.34,12.83l-9.17,9.6c-3.02-3.59-6.51-7.48-10.46-11.65
			C691.09,846.18,690.72,846.76,690.44,847.26z M666.71,771.45h-5.07c-1.01,0.07-1.51,0.58-1.51,1.51v53.38
			c0.94,0.72,1.73,1.22,2.38,1.51c1.87,0.72,3.67,0.72,5.39,0c0.93-0.65,1.54-2.7,1.83-6.15c0-5.75-2.8-13.59-8.41-23.51
			c-0.5-0.93-0.4-2.16,0.32-3.67L666.71,771.45z M691.62,804.02c-0.36,0.07-0.5,0.25-0.43,0.54v7.98c0,0.36,0.14,0.58,0.43,0.65h6.9
			c0.36-0.14,0.54-0.36,0.54-0.65v-7.98c-0.07-0.36-0.25-0.54-0.54-0.54H691.62z M725.7,779.11c-0.43-0.29-0.9-0.54-1.4-0.75
			c-4.46-2.3-9.1-5-13.91-8.09c-3.09,2.45-7.69,5.39-13.8,8.84H725.7z M750.83,852.98l-9.38,9.38c-3.81-4.82-8.41-10.07-13.8-15.74
			v0.11c-3.09,5.53-6.18,9.96-9.27,13.26l-11.43-6.47c7.77-8.7,13.08-18.44,15.96-29.22h-7.98c-1.08,0-1.62-0.58-1.62-1.73V794.1
			c0-1.08,0.54-1.62,1.62-1.62h28.04c1.15,0,1.73,0.54,1.73,1.62v28.47c0,1.15-0.58,1.73-1.73,1.73h-18.87l11.32,3.23
			c-0.94,2.88-1.87,5.54-2.81,7.98C738.86,841.04,744.93,846.87,750.83,852.98z M725.7,803.59c-0.36,0.07-0.5,0.25-0.43,0.54v8.41
			c0,0.36,0.14,0.58,0.43,0.65h6.47c0.36-0.14,0.54-0.36,0.54-0.65v-8.41c-0.07-0.36-0.25-0.54-0.54-0.54H725.7z"/>
		<path class="st1" d="M773.51,826.23l8.74-4.96h-15.1v-12.83h40.55v-8.3h-24.16v-7.55c-4.89,2.45-10.07,4.89-15.53,7.33l-6.9-13.59
			c25.38-8.63,41.95-18.33,49.71-29.12l13.16,3.56c-0.58,0.79-1.11,1.62-1.62,2.48c13.01,9.85,28.04,17.36,45.08,22.54l-7.12,13.48
			c-5.39-2.23-10.39-4.42-14.99-6.58v7.44h-24.37v8.3h39.9v12.83h-16.93l9.6,5.39c-3.38,6.83-6.47,12.98-9.27,18.44h15.31v12.83
			h-91.12V845.1h15.53C780.23,837.05,776.74,830.76,773.51,826.23z M807.69,845.1v-23.83h-22c4.03,5.75,7.91,12.98,11.65,21.68
			l-4.2,2.16H807.69z M834.98,787.31c-0.79-0.5-1.55-0.97-2.26-1.4c-5.97-3.52-12.22-7.8-18.76-12.83
			c-4.53,4.1-11.32,8.84-20.38,14.24H834.98z M829.8,845.1c4.46-7.48,8.52-15.42,12.19-23.83h-21.03v23.83H829.8z"/>
		<path class="st1" d="M891.63,840.04v18.66h-11.97v-53.81c0-1.8,0.9-2.7,2.7-2.7h48.74c1.87,0,2.8,0.9,2.8,2.7v44.32l16.93-2.48
			v-20.06h-14.23c-1.15-0.07-1.73-0.68-1.73-1.83v-52.41c0-1.15,0.57-1.73,1.73-1.73h14.23v-10.35h11.97v10.35h14.56
			c1.22,0,1.83,0.58,1.83,1.73v52.41c-0.07,1.22-0.69,1.83-1.83,1.83H962.8v18.44l4.64-0.65c-1.87-5.46-3.06-8.99-3.56-10.57
			l11.43-3.13c4.03,12.01,6.69,21.17,7.98,27.5l-11.65,2.16c-0.36-1.29-0.68-2.63-0.97-3.99l-34.51,5.39l-2.37-9.81
			c-0.14,3.59-1.98,6.36-5.5,8.3c-3.81,1.8-9.16,2.37-16.07,1.73l-0.65-6.26h-10.78v-15.74H891.63z M928.4,799.49h-45.07
			c-1.01,0-1.51-0.54-1.51-1.62v-21.35c0.07-1.01,0.57-1.51,1.51-1.51h45.07c1.08,0.07,1.62,0.58,1.62,1.51v21.35
			C930.02,798.95,929.48,799.49,928.4,799.49z M929.15,760.99v11.97h-46.69v-11.97H929.15z M911.9,849.1
			c3.31,0.93,5.61,1.19,6.9,0.75c2.08-1.08,3.13-2.41,3.13-3.99v-17.47h-9.92c-3.02,0-4.53-1.54-4.53-4.64V812h-2.37
			c-0.07,1.37-0.22,2.52-0.43,3.45c-0.22,0.58-0.32,1.11-0.32,1.62c-1.58,4.89-5.82,9.06-12.72,12.51v0.65h29.76v9.81h-9.49V849.1z
			 M895.29,812h-2.81c-0.58,0.07-0.86,0.36-0.86,0.86v5.61c1.73-1.44,2.84-2.73,3.34-3.88C895.11,814.01,895.22,813.15,895.29,812z
			 M894.21,784.82c-0.36,0.07-0.5,0.25-0.43,0.54v3.67c0,0.36,0.14,0.58,0.43,0.65h23.29c0.36-0.14,0.54-0.36,0.54-0.65v-3.67
			c-0.07-0.36-0.25-0.54-0.54-0.54H894.21z M921.93,819.44v-6.58c0-0.58-0.32-0.86-0.97-0.86h-3.67v4.96c0,1.65,0.79,2.48,2.37,2.48
			H921.93z M950.83,783.1h-3.45c-0.36-0.07-0.54,0.11-0.54,0.54v29.98c0.07,0.43,0.25,0.65,0.54,0.65h3.45V783.1z M962.8,814.26
			h3.78c0.36,0,0.57-0.22,0.65-0.65v-29.98c-0.15-0.43-0.36-0.61-0.65-0.54h-3.78V814.26z"/>
		<path class="st1" d="M1095.58,813.62v11.11h-13.27l7.01,4.96c-2.73,3.95-5.54,7.59-8.41,10.89c2.44,3.09,4.13,4.64,5.07,4.64
			c0.43,0,0.68-0.32,0.75-0.97c0.36-1.8,0.57-4.85,0.65-9.16l11.86,3.34c-1.65,11.22-3.92,18.12-6.79,20.71
			c-1.22,0.93-2.41,1.4-3.56,1.4c-4.82,0-10.24-4.1-16.28-12.29c-7.69,5.54-17.47,9.81-29.33,12.83l-5.61-11.22
			c11.86-2.87,21.35-6.79,28.47-11.75c-2.3-3.74-4.31-8.2-6.04-13.37h-18.87c-0.94,0-1.44,0.43-1.51,1.29
			c6.04,2.66,11.9,5.54,17.58,8.63l-5.5,10.57c-3.52-2.37-7.59-4.85-12.19-7.44c-0.94,9.42-4.96,17.25-12.08,23.51l-7.66-4.85v2.37
			h-11.97v-35.69c-0.72,1.44-1.33,2.8-1.83,4.1l-11.75-2.59c6.18-10.71,10.28-21.89,12.29-33.54h-7.98v-11.97h9.27v-18.76h11.97
			v18.76h4.1c-0.94-1.01-1.83-1.87-2.7-2.59l7.55-8.2c0.29,0.07,0.68,0.43,1.19,1.08c1.65-3.67,3.16-7.48,4.53-11.43l10.03,4.75
			c-1.44,3.88-3.81,8.99-7.12,15.31c0.57,0.72,1.19,1.55,1.83,2.48c1.22-2.87,2.19-5.71,2.91-8.52l8.63,2.37
			c-0.29-4.6-0.47-9.38-0.54-14.34l12.08,0.65c0,4.24,0.03,8.34,0.11,12.29l4.96-5.07c0.14,0.14,0.47,0.47,0.97,0.97
			c1.58-3.52,3.13-7.15,4.64-10.89l9.92,4.96c-1.44,3.81-3.88,8.77-7.33,14.88c0.79,1.08,1.65,2.3,2.59,3.67
			c2.73-5.25,4.67-10.28,5.82-15.1l10.68,2.91c-0.86,4.03-3.17,9.31-6.9,15.85c-1.08,1.37-1.98,2.81-2.7,4.31l8.19-2.16
			c3.24,10.35,5.18,17.25,5.82,20.7l-10.35,1.94c-0.29-1.51-0.65-3.06-1.08-4.64l-5.93,1.19c1.58,1.37,3.16,2.95,4.75,4.75
			l-2.48,2.37H1095.58z M1055.79,810.27l-8.52,1.4c-0.22-0.93-0.43-1.87-0.65-2.81l-14.13,1.62l-10.03,6.15
			c-0.79-1.73-1.66-3.45-2.59-5.18v40.55c2.73-3.02,4.67-5.82,5.82-8.41c1.29-3.23,1.98-7.22,2.05-11.97v-14.77
			c0-2.16,1.08-3.23,3.23-3.23h25.66C1056.29,812.47,1056.01,811.35,1055.79,810.27z M1027.97,799.81c1.87-2.44,3.81-5.21,5.82-8.3
			c-2.16-3.31-4.35-6.26-6.58-8.84v8.41h-7.01c2.01,2.95,4.03,5.86,6.04,8.74H1027.97z M1042.85,795.61
			c-0.65,0.86-1.22,1.73-1.73,2.59l2.48-0.32C1043.17,796.87,1042.92,796.11,1042.85,795.61z M1051.26,779.97
			c-1.15,2.59-2.63,5.65-4.42,9.17c-1.3,1.8-2.41,3.59-3.34,5.39l8.52-2.05c0.14,0.65,0.47,1.65,0.97,3.02
			C1052.27,790.54,1051.69,785.36,1051.26,779.97z M1065.06,798.09l2.7-0.54c1.44-1.65,2.84-3.48,4.21-5.5
			c-2.95-4.82-5.97-9.06-9.06-12.72C1063.41,785.94,1064.13,792.19,1065.06,798.09z M1073.37,807.9l-6.36,1.08
			c0.43,1.58,0.79,3.13,1.08,4.64h5.5c-1.08-1.01-2.09-1.83-3.02-2.48L1073.37,807.9z M1078.11,824.72h-6.25
			c0.14,0.22,0.25,0.43,0.32,0.65c0.57,1.58,1.22,3.06,1.94,4.42C1075.42,828.21,1076.74,826.52,1078.11,824.72z M1083.61,791.83
			c-0.72,1.01-1.4,2.05-2.05,3.13l2.91-0.54C1084.11,793.34,1083.83,792.48,1083.61,791.83z"/>
		<path class="st1" d="M1160.43,857.83h-12.4v-15.64h-5.61v-10.68h5.61v-18.01l-7.01,4.53c-1.22-2.37-2.52-4.78-3.88-7.22v47.56
			h-12.4v-36.34c-0.72,1.58-1.44,3.06-2.16,4.42l-11.65-2.8c6.69-11.07,11.03-22,13.05-32.78h-9.17v-12.4h9.92v-17.69h12.4v17.69
			h7.98v12.4h-7.98v0.11c3.74,5.03,7.37,10.28,10.89,15.74c0.36-1.29,1.33-1.94,2.91-1.94h21.46v-3.13h-26.53v-10.68h15.31v-3.13
			h-11.86v-9.81h11.86v-2.7h-14.45v-10.68h14.45v-4.31h11.97v4.31h12.19v-3.88h11.97v3.88h13.8v10.68h-13.8v2.7h12.08v9.81h-12.08
			v3.13h15.96v10.68h-28.9v3.13h22.21c2.01,0,3.02,0.97,3.02,2.91v23.83h4.1v10.68h-4.1v7.44c-0.14,3.95-2.09,7.01-5.82,9.17
			c-4.67,2.3-11.36,3.02-20.06,2.16l-1.4-13.69c5.61,1.15,9.49,1.37,11.65,0.65c2.16-1.01,3.23-2.37,3.23-4.1v-1.62h-36.77V857.83z
			 M1172.4,815.45h-11.11c-0.58,0.07-0.86,0.36-0.86,0.86v1.83h11.97V815.45z M1172.4,831.52v-2.7h-11.97v2.7H1172.4z
			 M1185.34,775.34h-12.19v2.7h12.19V775.34z M1185.34,790.97v-3.13h-12.19v3.13H1185.34z M1184.37,818.15h12.83v-1.83
			c0-0.57-0.32-0.86-0.97-0.86h-11.86V818.15z M1197.2,831.52v-2.7h-12.83v2.7H1197.2z"/>
	</g>
	<rect x="13.33" y="1027.18" class="st3" width="1248.94" height="42.8"/>
	<path class="st4" d="M896.71,85.6H378.88c-11.98,0-21.69,9.71-21.69,21.69v517.84c0,11.98,9.71,21.69,21.69,21.69h517.84
		c11.98,0,21.69-9.71,21.69-21.69V107.29C918.4,95.31,908.69,85.6,896.71,85.6z"/>
	<g>
		<path class="st5" d="M597.67,150.61l-165.18,40.48c0,0-22.3,6.78-22.51,42.08L408.4,504.7c0,0-1.76,34.48,41.18,45.48
			l169.28,37.84l0.91-155.75l-28.33-0.17c0,0,15.01,51.53-42.55,51.19l-59.07-0.34c0,0,30.2-45.11,31.07-193.9l0.14-23.82
			c0,0-3.73-18.41,20.85-18.26l54.43,0.32L597.67,150.61z"/>
		<path class="st5" d="M680.48,151.09l164.7,42.41c0,0,22.22,7.04,22.02,42.34l-1.58,271.53c0,0,1.32,34.5-41.71,45l-169.8,35.86
			l0.91-155.75l28.42,0.17c0,0-15.61,51.35,41.91,51.69l59.03,0.34c0,0-29.63-45.46-28.76-194.25l0.14-23.82
			c0,0,3.94-18.36-20.6-18.5l-54.47-0.32L680.48,151.09z"/>
	</g>
	<rect x="13.33" y="1074.49" class="st6" width="1248.94" height="189.67"/>
	<g>
		<g>
			<path class="st7" d="M60.38,1244.99v-42.94h6.07v42.94H60.38z"/>
			<path class="st7" d="M69.48,1231.02l5.91-0.82c0.36,2.83,1.08,4.91,2.16,6.24c1.09,1.33,2.55,1.99,4.4,1.99
				c1.95,0,3.43-0.59,4.42-1.77c0.99-1.18,1.49-2.56,1.49-4.14c0-1.02-0.21-1.88-0.62-2.59c-0.42-0.71-1.14-1.33-2.18-1.86
				c-0.71-0.35-2.33-0.98-4.86-1.87c-3.25-1.15-5.54-2.57-6.85-4.25c-1.85-2.36-2.77-5.24-2.77-8.64c0-2.19,0.43-4.23,1.3-6.14
				c0.87-1.9,2.12-3.35,3.75-4.35c1.63-1,3.6-1.49,5.91-1.49c3.77,0,6.61,1.18,8.52,3.54c1.91,2.36,2.91,5.52,3,9.46l-6.07,0.38
				c-0.26-2.21-0.82-3.79-1.67-4.76s-2.14-1.45-3.84-1.45c-1.76,0-3.14,0.52-4.14,1.55c-0.64,0.66-0.96,1.55-0.96,2.66
				c0,1.01,0.3,1.89,0.9,2.61c0.77,0.92,2.62,1.87,5.58,2.87c2.95,1,5.14,2.03,6.55,3.09c1.42,1.06,2.52,2.52,3.32,4.36
				c0.8,1.85,1.2,4.13,1.2,6.84c0,2.46-0.48,4.77-1.44,6.91c-0.96,2.15-2.31,3.74-4.06,4.79c-1.75,1.04-3.93,1.57-6.54,1.57
				c-3.8,0-6.72-1.26-8.75-3.76C71.09,1239.48,69.87,1235.82,69.48,1231.02z"/>
			<path class="st7" d="M96.26,1231.02l5.91-0.82c0.36,2.83,1.08,4.91,2.16,6.24c1.09,1.33,2.55,1.99,4.4,1.99
				c1.95,0,3.43-0.59,4.42-1.77c0.99-1.18,1.49-2.56,1.49-4.14c0-1.02-0.21-1.88-0.62-2.59c-0.42-0.71-1.14-1.33-2.18-1.86
				c-0.71-0.35-2.33-0.98-4.86-1.87c-3.25-1.15-5.54-2.57-6.85-4.25c-1.85-2.36-2.77-5.24-2.77-8.64c0-2.19,0.43-4.23,1.3-6.14
				c0.87-1.9,2.12-3.35,3.75-4.35c1.63-1,3.6-1.49,5.91-1.49c3.77,0,6.61,1.18,8.52,3.54c1.91,2.36,2.91,5.52,3,9.46l-6.07,0.38
				c-0.26-2.21-0.82-3.79-1.67-4.76s-2.14-1.45-3.84-1.45c-1.76,0-3.14,0.52-4.14,1.55c-0.64,0.66-0.96,1.55-0.96,2.66
				c0,1.01,0.3,1.89,0.9,2.61c0.77,0.92,2.62,1.87,5.58,2.87c2.95,1,5.14,2.03,6.55,3.09c1.42,1.06,2.52,2.52,3.32,4.36
				c0.8,1.85,1.2,4.13,1.2,6.84c0,2.46-0.48,4.77-1.44,6.91c-0.96,2.15-2.31,3.74-4.06,4.79c-1.75,1.04-3.93,1.57-6.54,1.57
				c-3.8,0-6.72-1.26-8.75-3.76C97.88,1239.48,96.66,1235.82,96.26,1231.02z"/>
			<path class="st7" d="M124.55,1202.05h6.07v23.25c0,3.69,0.08,6.08,0.23,7.18c0.26,1.76,0.88,3.17,1.86,4.23
				c0.98,1.06,2.31,1.6,4.01,1.6c1.72,0,3.02-0.5,3.9-1.51c0.87-1.01,1.4-2.24,1.58-3.7c0.18-1.47,0.27-3.9,0.27-7.29v-23.75h6.07
				v22.55c0,5.16-0.16,8.8-0.49,10.92c-0.33,2.13-0.93,3.93-1.81,5.39c-0.88,1.47-2.06,2.63-3.54,3.5c-1.48,0.87-3.4,1.3-5.78,1.3
				c-2.87,0-5.05-0.47-6.53-1.42c-1.48-0.95-2.66-2.18-3.52-3.69c-0.86-1.51-1.43-3.1-1.7-4.76c-0.4-2.46-0.59-6.09-0.59-10.9
				V1202.05z"/>
			<path class="st7" d="M153.7,1244.99v-42.94h22.29v7.26h-16.22v9.52h15.09v7.24h-15.09v11.69h16.79v7.23H153.7z"/>
			<path class="st7" d="M180.46,1202.05h11.09c2.5,0,4.41,0.27,5.72,0.82c1.76,0.74,3.27,2.06,4.53,3.95
				c1.26,1.89,2.21,4.21,2.87,6.96c0.66,2.74,0.98,6.13,0.98,10.15c0,3.53-0.31,6.58-0.92,9.14c-0.75,3.12-1.82,5.65-3.22,7.59
				c-1.05,1.46-2.47,2.6-4.26,3.43c-1.34,0.61-3.13,0.91-5.37,0.91h-11.42V1202.05z M186.53,1209.31v28.44h4.53
				c1.69,0,2.92-0.14,3.67-0.41c0.98-0.35,1.8-0.95,2.45-1.79c0.65-0.84,1.18-2.22,1.59-4.15c0.41-1.92,0.62-4.54,0.62-7.86
				c0-3.32-0.21-5.87-0.62-7.65s-0.98-3.16-1.72-4.16c-0.74-1-1.68-1.67-2.81-2.02c-0.85-0.27-2.51-0.41-4.98-0.41H186.53z"/>
			<path class="st7" d="M220.06,1202.05h12.01c2.38,0,4.15,0.14,5.32,0.42c1.17,0.28,2.21,0.87,3.14,1.77
				c0.92,0.9,1.69,2.09,2.31,3.59s0.92,3.17,0.92,5.02c0,2.01-0.38,3.86-1.14,5.54c-0.76,1.68-1.79,2.94-3.09,3.78
				c1.83,0.76,3.24,2.06,4.22,3.89c0.98,1.83,1.48,3.99,1.48,6.47c0,1.95-0.32,3.85-0.95,5.7c-0.64,1.84-1.5,3.32-2.6,4.42
				c-1.1,1.1-2.46,1.78-4.07,2.04c-1.01,0.16-3.45,0.25-7.32,0.29h-10.23V1202.05z M226.13,1209.19v9.93h3.98
				c2.37,0,3.83-0.05,4.41-0.15c1.04-0.18,1.86-0.69,2.45-1.54c0.59-0.85,0.89-1.97,0.89-3.35c0-1.33-0.26-2.41-0.77-3.24
				c-0.51-0.83-1.27-1.33-2.29-1.51c-0.6-0.1-2.33-0.15-5.19-0.15H226.13z M226.13,1226.27v11.48h5.62c2.19,0,3.57-0.09,4.16-0.26
				c0.9-0.23,1.64-0.81,2.2-1.71c0.57-0.91,0.85-2.12,0.85-3.65c0-1.29-0.22-2.38-0.66-3.28c-0.44-0.9-1.07-1.55-1.9-1.96
				c-0.83-0.41-2.62-0.62-5.38-0.62H226.13z"/>
			<path class="st7" d="M257.04,1244.99v-18.07l-11.01-24.87h7.11l7.07,16.99l6.93-16.99h6.99l-11.05,24.92v18.01H257.04z"/>
			<path class="st7" d="M304.85,1229.2l5.88,2.67c-0.9,4.69-2.4,8.17-4.5,10.44c-2.1,2.28-4.76,3.41-7.99,3.41
				c-3.99,0-7.27-1.95-9.84-5.84c-2.57-3.9-3.85-9.22-3.85-15.98c0-7.15,1.29-12.7,3.87-16.65c2.58-3.95,5.98-5.93,10.19-5.93
				c3.68,0,6.66,1.55,8.96,4.66c1.37,1.83,2.39,4.47,3.07,7.91l-6.01,2.05c-0.36-2.23-1.1-3.98-2.22-5.27
				c-1.13-1.29-2.5-1.93-4.11-1.93c-2.23,0-4.04,1.14-5.42,3.43c-1.39,2.28-2.08,5.98-2.08,11.1c0,5.43,0.68,9.3,2.05,11.6
				c1.37,2.3,3.14,3.46,5.33,3.46c1.61,0,3-0.73,4.16-2.2C303.51,1234.65,304.35,1232.34,304.85,1229.2z"/>
			<path class="st7" d="M314.73,1244.99v-42.94h22.29v7.26H320.8v9.52h15.09v7.24H320.8v11.69h16.79v7.23H314.73z"/>
			<path class="st7" d="M341.58,1244.99v-42.94h5.91l12.3,28.67v-28.67h5.64v42.94h-6.09l-12.12-28v28H341.58z"/>
			<path class="st7" d="M377.39,1244.99v-35.67h-8.92v-7.26h23.89v7.26h-8.9v35.67H377.39z"/>
			<path class="st7" d="M395.07,1244.99v-42.94h12.77c3.21,0,5.55,0.39,7,1.16c1.46,0.77,2.62,2.14,3.5,4.12
				c0.88,1.97,1.31,4.23,1.31,6.77c0,3.22-0.66,5.88-1.99,7.98c-1.33,2.1-3.31,3.42-5.95,3.97c1.31,1.09,2.4,2.29,3.25,3.6
				c0.85,1.31,2.01,3.63,3.45,6.97l3.67,8.38h-7.26l-4.39-9.34c-1.56-3.34-2.62-5.44-3.2-6.31c-0.57-0.87-1.18-1.47-1.82-1.79
				c-0.64-0.32-1.66-0.48-3.06-0.48h-1.23v17.92H395.07z M401.14,1220.21h4.49c2.91,0,4.73-0.18,5.45-0.53
				c0.72-0.35,1.29-0.95,1.7-1.82c0.41-0.86,0.61-1.93,0.61-3.22c0-1.44-0.27-2.61-0.81-3.5c-0.54-0.89-1.3-1.45-2.29-1.68
				c-0.49-0.1-1.97-0.15-4.43-0.15h-4.74V1220.21z"/>
			<path class="st7" d="M451.26,1244.99h-6.6l-2.62-9.75h-12.02l-2.48,9.75h-6.44l11.71-42.94h6.42L451.26,1244.99z M440.09,1228
				l-4.14-15.93l-4.06,15.93H440.09z"/>
			<path class="st7" d="M453.43,1244.99v-42.59h6.07v35.35h15.09v7.23H453.43z"/>
			<path class="st7" d="M487.36,1202.05h11.09c2.5,0,4.41,0.27,5.72,0.82c1.76,0.74,3.27,2.06,4.53,3.95
				c1.26,1.89,2.21,4.21,2.87,6.96c0.66,2.74,0.98,6.13,0.98,10.15c0,3.53-0.31,6.58-0.92,9.14c-0.75,3.12-1.82,5.65-3.22,7.59
				c-1.05,1.46-2.47,2.6-4.26,3.43c-1.34,0.61-3.13,0.91-5.37,0.91h-11.42V1202.05z M493.43,1209.31v28.44h4.53
				c1.69,0,2.92-0.14,3.67-0.41c0.98-0.35,1.8-0.95,2.45-1.79c0.65-0.84,1.18-2.22,1.59-4.15c0.41-1.92,0.62-4.54,0.62-7.86
				c0-3.32-0.21-5.87-0.62-7.65s-0.98-3.16-1.72-4.16c-0.74-1-1.68-1.67-2.81-2.02c-0.85-0.27-2.51-0.41-4.98-0.41H493.43z"/>
			<path class="st7" d="M516.49,1244.99v-42.94h22.29v7.26h-16.22v9.52h15.09v7.24h-15.09v11.69h16.79v7.23H516.49z"/>
			<path class="st7" d="M543.28,1244.99v-42.94h9.74c3.69,0,6.1,0.21,7.22,0.64c1.72,0.65,3.16,2.05,4.33,4.2
				c1.16,2.16,1.74,4.95,1.74,8.36c0,2.64-0.34,4.85-1,6.65c-0.67,1.8-1.52,3.21-2.55,4.23c-1.03,1.02-2.08,1.7-3.15,2.04
				c-1.45,0.41-3.55,0.62-6.29,0.62h-3.96v16.2H543.28z M549.34,1209.31v12.19h3.32c2.39,0,3.99-0.23,4.8-0.67s1.44-1.15,1.9-2.11
				c0.46-0.95,0.69-2.07,0.69-3.34c0-1.56-0.32-2.85-0.96-3.87c-0.64-1.01-1.46-1.65-2.44-1.9c-0.72-0.19-2.18-0.29-4.37-0.29
				H549.34z"/>
			<path class="st7" d="M568.83,1223.78c0-4.37,0.46-8.04,1.37-11.01c0.68-2.19,1.62-4.15,2.8-5.89c1.18-1.74,2.48-3.03,3.89-3.87
				c1.87-1.13,4.03-1.7,6.48-1.7c4.43,0,7.97,1.96,10.63,5.89c2.66,3.92,3.99,9.38,3.99,16.37c0,6.93-1.32,12.35-3.96,16.27
				c-2.64,3.92-6.16,5.87-10.58,5.87c-4.47,0-8.02-1.95-10.66-5.84C570.15,1235.98,568.83,1230.61,568.83,1223.78z M575.09,1223.49
				c0,4.86,0.79,8.55,2.36,11.06c1.57,2.51,3.57,3.76,5.99,3.76s4.4-1.25,5.96-3.74c1.55-2.49,2.33-6.22,2.33-11.2
				c0-4.92-0.75-8.59-2.27-11.01c-1.51-2.42-3.52-3.63-6.02-3.63c-2.5,0-4.52,1.23-6.05,3.68
				C575.85,1214.85,575.09,1218.55,575.09,1223.49z"/>
			<path class="st7" d="M599.97,1231.02l5.91-0.82c0.36,2.83,1.08,4.91,2.16,6.24c1.09,1.33,2.55,1.99,4.4,1.99
				c1.95,0,3.43-0.59,4.42-1.77c0.99-1.18,1.49-2.56,1.49-4.14c0-1.02-0.21-1.88-0.62-2.59c-0.42-0.71-1.14-1.33-2.18-1.86
				c-0.71-0.35-2.33-0.98-4.86-1.87c-3.25-1.15-5.54-2.57-6.85-4.25c-1.85-2.36-2.77-5.24-2.77-8.64c0-2.19,0.43-4.23,1.3-6.14
				s2.12-3.35,3.75-4.35c1.63-1,3.6-1.49,5.91-1.49c3.77,0,6.61,1.18,8.52,3.54c1.91,2.36,2.91,5.52,3,9.46l-6.07,0.38
				c-0.26-2.21-0.82-3.79-1.67-4.76s-2.14-1.45-3.84-1.45c-1.76,0-3.14,0.52-4.14,1.55c-0.64,0.66-0.96,1.55-0.96,2.66
				c0,1.01,0.3,1.89,0.9,2.61c0.77,0.92,2.62,1.87,5.58,2.87c2.95,1,5.14,2.03,6.55,3.09c1.42,1.06,2.52,2.52,3.32,4.36
				c0.8,1.85,1.2,4.13,1.2,6.84c0,2.46-0.48,4.77-1.44,6.91c-0.96,2.15-2.31,3.74-4.06,4.79c-1.75,1.04-3.93,1.57-6.54,1.57
				c-3.8,0-6.72-1.26-8.75-3.76C601.58,1239.48,600.37,1235.82,599.97,1231.02z"/>
			<path class="st7" d="M628.11,1244.99v-42.94h6.07v42.94H628.11z"/>
			<path class="st7" d="M645.51,1244.99v-35.67h-8.92v-7.26h23.88v7.26h-8.9v35.67H645.51z"/>
			<path class="st7" d="M673.44,1244.99v-42.94h6.07v42.94H673.44z"/>
			<path class="st7" d="M684.13,1244.99v-42.94h5.9l12.3,28.67v-28.67h5.64v42.94h-6.09l-12.12-28v28H684.13z"/>
			<path class="st7" d="M711.64,1231.02l5.91-0.82c0.35,2.83,1.08,4.91,2.16,6.24c1.09,1.33,2.55,1.99,4.4,1.99
				c1.96,0,3.43-0.59,4.42-1.77c0.99-1.18,1.49-2.56,1.49-4.14c0-1.02-0.21-1.88-0.63-2.59c-0.42-0.71-1.14-1.33-2.18-1.86
				c-0.71-0.35-2.33-0.98-4.86-1.87c-3.25-1.15-5.54-2.57-6.85-4.25c-1.84-2.36-2.77-5.24-2.77-8.64c0-2.19,0.44-4.23,1.3-6.14
				c0.87-1.9,2.12-3.35,3.75-4.35c1.63-1,3.61-1.49,5.91-1.49c3.77,0,6.61,1.18,8.52,3.54c1.91,2.36,2.91,5.52,3,9.46l-6.07,0.38
				c-0.26-2.21-0.82-3.79-1.67-4.76s-2.14-1.45-3.84-1.45c-1.76,0-3.14,0.52-4.14,1.55c-0.64,0.66-0.96,1.55-0.96,2.66
				c0,1.01,0.3,1.89,0.9,2.61c0.76,0.92,2.62,1.87,5.58,2.87c2.95,1,5.13,2.03,6.55,3.09c1.42,1.06,2.52,2.52,3.32,4.36
				c0.8,1.85,1.2,4.13,1.2,6.84c0,2.46-0.48,4.77-1.43,6.91c-0.96,2.15-2.31,3.74-4.06,4.79c-1.75,1.04-3.93,1.57-6.54,1.57
				c-3.8,0-6.72-1.26-8.75-3.76C713.25,1239.48,712.04,1235.82,711.64,1231.02z"/>
			<path class="st7" d="M739.92,1202.05h6.07v23.25c0,3.69,0.08,6.08,0.23,7.18c0.26,1.76,0.88,3.17,1.85,4.23
				c0.98,1.06,2.31,1.6,4.01,1.6c1.72,0,3.02-0.5,3.89-1.51c0.88-1.01,1.4-2.24,1.58-3.7c0.18-1.47,0.27-3.9,0.27-7.29v-23.75h6.07
				v22.55c0,5.16-0.16,8.8-0.49,10.92c-0.33,2.13-0.93,3.93-1.81,5.39c-0.88,1.47-2.06,2.63-3.54,3.5c-1.48,0.87-3.4,1.3-5.78,1.3
				c-2.87,0-5.05-0.47-6.53-1.42c-1.48-0.95-2.66-2.18-3.52-3.69c-0.86-1.51-1.43-3.1-1.7-4.76c-0.4-2.46-0.59-6.09-0.59-10.9
				V1202.05z"/>
			<path class="st7" d="M769.09,1244.99v-42.94h12.77c3.21,0,5.55,0.39,7,1.16c1.46,0.77,2.62,2.14,3.5,4.12
				c0.87,1.97,1.31,4.23,1.31,6.77c0,3.22-0.66,5.88-1.99,7.98c-1.32,2.1-3.31,3.42-5.95,3.97c1.31,1.09,2.4,2.29,3.25,3.6
				c0.85,1.31,2.01,3.63,3.45,6.97l3.67,8.38h-7.26l-4.39-9.34c-1.56-3.34-2.62-5.44-3.2-6.31c-0.58-0.87-1.18-1.47-1.83-1.79
				c-0.64-0.32-1.66-0.48-3.06-0.48h-1.23v17.92H769.09z M775.16,1220.21h4.49c2.91,0,4.73-0.18,5.45-0.53
				c0.72-0.35,1.29-0.95,1.7-1.82c0.41-0.86,0.61-1.93,0.61-3.22c0-1.44-0.27-2.61-0.81-3.5c-0.54-0.89-1.3-1.45-2.29-1.68
				c-0.49-0.1-1.97-0.15-4.43-0.15h-4.74V1220.21z"/>
			<path class="st7" d="M825.28,1244.99h-6.6l-2.62-9.75h-12.01l-2.48,9.75h-6.44l11.71-42.94h6.42L825.28,1244.99z M814.1,1228
				l-4.14-15.93L805.9,1228H814.1z"/>
			<path class="st7" d="M827.34,1244.99v-42.94h5.9l12.3,28.67v-28.67h5.64v42.94h-6.09l-12.12-28v28H827.34z"/>
			<path class="st7" d="M875.61,1229.2l5.88,2.67c-0.9,4.69-2.4,8.17-4.5,10.44c-2.1,2.28-4.76,3.41-7.99,3.41
				c-3.99,0-7.27-1.95-9.84-5.84c-2.57-3.9-3.85-9.22-3.85-15.98c0-7.15,1.29-12.7,3.88-16.65c2.58-3.95,5.98-5.93,10.19-5.93
				c3.68,0,6.66,1.55,8.96,4.66c1.37,1.83,2.39,4.47,3.08,7.91l-6.01,2.05c-0.36-2.23-1.1-3.98-2.23-5.27
				c-1.13-1.29-2.5-1.93-4.11-1.93c-2.23,0-4.04,1.14-5.42,3.43c-1.39,2.28-2.08,5.98-2.08,11.1c0,5.43,0.68,9.3,2.05,11.6
				c1.37,2.3,3.14,3.46,5.33,3.46c1.61,0,3-0.73,4.16-2.2C874.27,1234.65,875.11,1232.34,875.61,1229.2z"/>
			<path class="st7" d="M885.49,1244.99v-42.94h22.29v7.26h-16.22v9.52h15.09v7.24h-15.09v11.69h16.79v7.23H885.49z"/>
			<path class="st7" d="M941.95,1229.2l5.88,2.67c-0.9,4.69-2.4,8.17-4.5,10.44c-2.1,2.28-4.76,3.41-7.99,3.41
				c-3.99,0-7.27-1.95-9.84-5.84c-2.57-3.9-3.85-9.22-3.85-15.98c0-7.15,1.29-12.7,3.88-16.65c2.58-3.95,5.98-5.93,10.19-5.93
				c3.68,0,6.66,1.55,8.96,4.66c1.37,1.83,2.39,4.47,3.08,7.91l-6.01,2.05c-0.36-2.23-1.1-3.98-2.23-5.27
				c-1.13-1.29-2.5-1.93-4.11-1.93c-2.23,0-4.04,1.14-5.42,3.43c-1.39,2.28-2.08,5.98-2.08,11.1c0,5.43,0.68,9.3,2.05,11.6
				c1.37,2.3,3.14,3.46,5.33,3.46c1.61,0,3-0.73,4.16-2.2C940.61,1234.65,941.45,1232.34,941.95,1229.2z"/>
			<path class="st7" d="M950.6,1223.78c0-4.37,0.46-8.04,1.37-11.01c0.68-2.19,1.62-4.15,2.8-5.89c1.18-1.74,2.48-3.03,3.89-3.87
				c1.87-1.13,4.03-1.7,6.48-1.7c4.43,0,7.97,1.96,10.63,5.89c2.66,3.92,3.99,9.38,3.99,16.37c0,6.93-1.32,12.35-3.96,16.27
				c-2.64,3.92-6.16,5.87-10.58,5.87c-4.47,0-8.02-1.95-10.66-5.84C951.92,1235.98,950.6,1230.61,950.6,1223.78z M956.85,1223.49
				c0,4.86,0.79,8.55,2.36,11.06c1.57,2.51,3.57,3.76,5.99,3.76c2.42,0,4.4-1.25,5.96-3.74c1.55-2.49,2.33-6.22,2.33-11.2
				c0-4.92-0.76-8.59-2.27-11.01c-1.51-2.42-3.52-3.63-6.02-3.63c-2.5,0-4.52,1.23-6.05,3.68
				C957.62,1214.85,956.85,1218.55,956.85,1223.49z"/>
			<path class="st7" d="M983.29,1244.99v-42.94h12.77c3.21,0,5.55,0.39,7,1.16c1.46,0.77,2.62,2.14,3.5,4.12
				c0.87,1.97,1.31,4.23,1.31,6.77c0,3.22-0.66,5.88-1.99,7.98c-1.32,2.1-3.31,3.42-5.95,3.97c1.31,1.09,2.4,2.29,3.25,3.6
				c0.85,1.31,2.01,3.63,3.45,6.97l3.67,8.38h-7.26l-4.39-9.34c-1.56-3.34-2.62-5.44-3.2-6.31c-0.58-0.87-1.18-1.47-1.83-1.79
				s-1.66-0.48-3.06-0.48h-1.23v17.92H983.29z M989.36,1220.21h4.49c2.91,0,4.73-0.18,5.45-0.53c0.72-0.35,1.29-0.95,1.7-1.82
				c0.41-0.86,0.61-1.93,0.61-3.22c0-1.44-0.27-2.61-0.81-3.5c-0.54-0.89-1.3-1.45-2.29-1.68c-0.49-0.1-1.97-0.15-4.43-0.15h-4.74
				V1220.21z"/>
			<path class="st7" d="M1012.38,1244.99v-42.94h9.74c3.69,0,6.1,0.21,7.22,0.64c1.72,0.65,3.17,2.05,4.33,4.2
				c1.16,2.16,1.74,4.95,1.74,8.36c0,2.64-0.34,4.85-1.01,6.65c-0.67,1.8-1.52,3.21-2.55,4.23c-1.03,1.02-2.08,1.7-3.15,2.04
				c-1.45,0.41-3.55,0.62-6.29,0.62h-3.96v16.2H1012.38z M1018.44,1209.31v12.19h3.32c2.39,0,3.99-0.23,4.8-0.67
				c0.8-0.45,1.44-1.15,1.9-2.11c0.46-0.95,0.69-2.07,0.69-3.34c0-1.56-0.32-2.85-0.96-3.87c-0.64-1.01-1.46-1.65-2.44-1.9
				c-0.73-0.19-2.18-0.29-4.37-0.29H1018.44z"/>
			<path class="st7" d="M1037.93,1223.78c0-4.37,0.46-8.04,1.37-11.01c0.68-2.19,1.62-4.15,2.8-5.89c1.18-1.74,2.48-3.03,3.89-3.87
				c1.87-1.13,4.03-1.7,6.48-1.7c4.43,0,7.97,1.96,10.63,5.89c2.66,3.92,3.99,9.38,3.99,16.37c0,6.93-1.32,12.35-3.96,16.27
				c-2.64,3.92-6.16,5.87-10.58,5.87c-4.47,0-8.02-1.95-10.66-5.84C1039.25,1235.98,1037.93,1230.61,1037.93,1223.78z
				 M1044.19,1223.49c0,4.86,0.79,8.55,2.36,11.06c1.57,2.51,3.57,3.76,5.99,3.76c2.42,0,4.4-1.25,5.95-3.74
				c1.55-2.49,2.33-6.22,2.33-11.2c0-4.92-0.76-8.59-2.27-11.01c-1.51-2.42-3.52-3.63-6.02-3.63c-2.5,0-4.52,1.23-6.05,3.68
				C1044.95,1214.85,1044.19,1218.55,1044.19,1223.49z"/>
			<path class="st7" d="M1070.62,1244.99v-42.94h12.77c3.21,0,5.55,0.39,7,1.16c1.46,0.77,2.62,2.14,3.5,4.12
				c0.87,1.97,1.31,4.23,1.31,6.77c0,3.22-0.66,5.88-1.99,7.98c-1.32,2.1-3.31,3.42-5.95,3.97c1.31,1.09,2.4,2.29,3.25,3.6
				c0.85,1.31,2.01,3.63,3.45,6.97l3.67,8.38h-7.26l-4.39-9.34c-1.56-3.34-2.62-5.44-3.2-6.31c-0.58-0.87-1.18-1.47-1.83-1.79
				s-1.66-0.48-3.06-0.48h-1.23v17.92H1070.62z M1076.69,1220.21h4.49c2.91,0,4.73-0.18,5.45-0.53c0.72-0.35,1.29-0.95,1.7-1.82
				c0.41-0.86,0.61-1.93,0.61-3.22c0-1.44-0.27-2.61-0.81-3.5c-0.54-0.89-1.3-1.45-2.29-1.68c-0.49-0.1-1.97-0.15-4.43-0.15h-4.74
				V1220.21z"/>
			<path class="st7" d="M1126.81,1244.99h-6.6l-2.62-9.75h-12.01l-2.48,9.75h-6.44l11.71-42.94h6.42L1126.81,1244.99z M1115.64,1228
				l-4.14-15.93l-4.06,15.93H1115.64z"/>
			<path class="st7" d="M1132.46,1244.99v-35.67h-8.92v-7.26h23.88v7.26h-8.9v35.67H1132.46z"/>
			<path class="st7" d="M1149.94,1244.99v-42.94h6.07v42.94H1149.94z"/>
			<path class="st7" d="M1159.35,1223.78c0-4.37,0.46-8.04,1.37-11.01c0.68-2.19,1.62-4.15,2.8-5.89c1.18-1.74,2.48-3.03,3.89-3.87
				c1.87-1.13,4.03-1.7,6.48-1.7c4.43,0,7.97,1.96,10.63,5.89c2.66,3.92,3.99,9.38,3.99,16.37c0,6.93-1.32,12.35-3.96,16.27
				c-2.64,3.92-6.16,5.87-10.58,5.87c-4.47,0-8.02-1.95-10.66-5.84C1160.66,1235.98,1159.35,1230.61,1159.35,1223.78z
				 M1165.6,1223.49c0,4.86,0.79,8.55,2.36,11.06c1.57,2.51,3.57,3.76,5.99,3.76c2.42,0,4.4-1.25,5.95-3.74
				c1.55-2.49,2.33-6.22,2.33-11.2c0-4.92-0.76-8.59-2.27-11.01c-1.51-2.42-3.52-3.63-6.02-3.63c-2.5,0-4.52,1.23-6.05,3.68
				C1166.36,1214.85,1165.6,1218.55,1165.6,1223.49z"/>
			<path class="st7" d="M1192.08,1244.99v-42.94h5.9l12.3,28.67v-28.67h5.64v42.94h-6.09l-12.12-28v28H1192.08z"/>
		</g>
		<g>
			<g>
				<path class="st7" d="M1021.1,1171.85c-7.01,2.38-13.24,3.79-18.71,4.24l-3.57-10.8c8.35-0.96,16.58-2.89,24.68-5.78h-23.24
					v-9.55h39.92v-0.96c-0.52-0.13-1-0.23-1.45-0.29l-0.68-10.51c3.6,1.22,5.98,1.64,7.14,1.25c1.67-0.77,2.51-1.83,2.51-3.18v0.1
					c0-0.51-0.29-0.77-0.87-0.77h-11.57v12.53h-11.09v-12.53h-10.13c-0.51,0.06-0.77,0.32-0.77,0.77v8.58h-9.54v-16.49
					c0-1.61,0.8-2.41,2.41-2.41h18.03v-2.41h-21.6v-8.39c-1.54-2.51-3.02-4.44-4.44-5.79c5.08-3.6,9.1-8.32,12.05-14.17l9.45,5.98
					c-0.19,0.32-0.39,0.61-0.58,0.87h5.11v-4.63h11.09v4.63h19.48v9.55h-19.48v2.41h20.63v9.55h-20.63v2.41h19.48
					c1.67,0,2.51,0.8,2.51,2.41v12.34c-0.07,3.02-1.54,5.34-4.44,6.94c-0.71,0.32-1.35,0.61-1.93,0.87v1.35h37.02v9.55h-10.6
					l3.18,6.36c-3.34,2.06-7.14,4.05-11.38,5.98c6.36,2.76,13.21,4.63,20.54,5.59l-4.05,10.8c-13.69-1.99-25.16-7.36-34.42-16.1
					l1.93,9.83c-11.25,3.34-25.07,5.53-41.46,6.56l-1.45-11.19c3.73-0.39,7.36-0.71,10.9-0.96V1171.85z M1024.19,1111.68h-12.54
					c-0.84,0.77-1.67,1.57-2.51,2.41h15.04V1111.68z M1050.32,1171.27c-2.64-2.63-5.11-5.82-7.42-9.55
					c-3.86,2.25-7.42,4.18-10.7,5.79v7.52C1039.2,1173.94,1045.24,1172.68,1050.32,1171.27z M1058.52,1164.42
					c4.11-1.74,7.84-3.38,11.18-4.92h-15.14c0.39,0.45,0.71,0.9,0.96,1.35C1056.49,1162.07,1057.49,1163.26,1058.52,1164.42z
					 M1059.09,1101.75h10.7v31.34h-10.7V1101.75z M1075.1,1098.28h11.09v41.65c-0.07,1.8-0.52,3.28-1.35,4.44
					c-1.03,1.48-2.51,2.64-4.44,3.47c-3.47,1.67-9.06,1.45-16.78-0.68l0.29-11.57c5.08,2.31,8.39,2.99,9.93,2.02
					c0.83-0.45,1.25-1.28,1.25-2.51V1098.28z"/>
				<path class="st7" d="M1166.4,1188.24l-3.95-7.14c-0.64,2.38-1.64,3.99-2.99,4.82c-2.57,1.61-5.62,2.6-9.16,2.99
					c-3.66,0.26-9.29-0.52-16.87-2.31l-0.96-12.05c7.2,2.12,12.05,3.18,14.56,3.18c2.57-0.13,4.44-0.58,5.59-1.35
					c0.58-0.32,0.96-1,1.16-2.03c0.39-1.41,0.71-5.14,0.96-11.18c-0.32-1.03-0.87-1.41-1.64-1.16h-9.55v3.28
					c-3.6-0.32-7.17-0.48-10.7-0.48v-27.19c0.06-0.83,0.32-1.48,0.77-1.93c0.51-0.39,1.09-0.58,1.73-0.58h18.71v-2.31
					c0-1.09-0.58-1.64-1.74-1.64h-8.29c-4.76,1.67-9.58,2.93-14.46,3.76l-6.07-9.93c5.85-0.9,11.02-2.12,15.52-3.66
					c0.13-0.06,0.29-0.13,0.48-0.19c-3.41-2.83-6.56-5.11-9.45-6.85l6.94-8.48c4.5,2.96,8.87,6.3,13.11,10.03
					c3.34-2.31,5.88-4.66,7.62-7.04h-15.81v-10.7h24.97l5.59,4.72l4.34-6.46c2.31,2.64,4.63,5.05,6.94,7.23
					c3.34-3.28,6.01-6.11,8-8.48l7.81,7.52c-2.06,2.57-4.56,5.24-7.52,8c0.71,0.52,1.38,1,2.03,1.45c3.15-3.34,5.62-6.27,7.42-8.77
					l8.2,7.04c-1.67,2.31-3.7,4.76-6.07,7.33c4.24,2.06,9.06,4.05,14.46,5.98l-6.75,9.06h1.74c-0.45,4.95-0.8,8.04-1.06,9.26
					c-0.32,1.35-0.9,2.35-1.74,2.99c-1.8,1.48-3.6,2.22-5.4,2.22h-8.29c-2.19,0-3.99-0.67-5.4-2.02c-1.48-1.54-2.22-3.31-2.22-5.3
					v-7.71c-0.07-1.03-0.58-1.54-1.54-1.54h-5.02c-0.84,0-1.25,0.42-1.25,1.25v2.8c0,2.12-0.48,4.08-1.45,5.88
					c-1.61,2.96-4.44,5.4-8.48,7.33h31.53l6.46,6.17c-2.51,6.11-4.92,10.64-7.23,13.59c-1.67,1.99-3.5,3.89-5.5,5.69
					c6.36,2.12,12.53,3.31,18.51,3.57l-3.86,10.8c-10.67-1.42-18.8-3.95-24.39-7.62C1177.87,1184.73,1171.09,1187.47,1166.4,1188.24
					z M1173.05,1158.54h-4.34v-9.83l-3.95-6.46v7.42h-10.7v-3.86h-8.87c-0.52,0-0.9,0.13-1.16,0.39c-0.32,0.39-0.48,0.8-0.48,1.25
					v3.86h18.8c1.73-0.13,2.7,0.61,2.89,2.22c-0.71,11.51-1.35,19.32-1.93,23.43c2.96-0.83,7.52-2.41,13.69-4.72
					c-3.09-2.89-6.01-6.17-8.77-9.83L1173.05,1158.54z M1188.09,1121.03c-6.11-4.5-11.41-9-15.91-13.5
					c-2.51,5.08-5.79,9.38-9.83,12.92h0.58c1.22,0,1.83,0.58,1.83,1.74v17.26c1.61-0.71,2.83-1.29,3.66-1.73
					c2.12-1.29,3.18-3.38,3.18-6.27v-8.29c0-0.58,0.19-1.09,0.58-1.54c0.45-0.39,0.96-0.58,1.54-0.58H1188.09z M1186.55,1166.83
					c3.34-2.64,6.07-5.4,8.2-8.29h-16.01C1181.38,1161.76,1183.98,1164.52,1186.55,1166.83z M1208.34,1132.02
					c-3.79-1.74-7.07-3.31-9.83-4.72v8.48c0,0.64,0.1,1.09,0.29,1.35c0.19,0.26,0.68,0.42,1.45,0.48h1.16
					c0.51,0,1.19-0.22,2.03-0.67c0.13-0.19,0.32-2.06,0.58-5.59L1208.34,1132.02z"/>
			</g>
			<g>
				<path class="st7" d="M140.39,1109.96c-0.07,0-29.83,0-29.83,0s0-8.09,0-8.24c0-3.66-2.97-6.62-6.62-6.62s-6.62,2.97-6.62,6.62
					c0,0.15,0,8.24,0,8.24s-29.76,0-29.83,0c-3.89,0-7.04,3.15-7.04,7.04c0,0,0,0.01,0,0.01h0v40.52h2.63v0h34.23v30.23h13.26
					v-30.23h34.23v0h2.63v-40.52h0c0,0,0-0.01,0-0.01C147.43,1113.11,144.28,1109.96,140.39,1109.96z M97.31,1145.53H72.44v-23.54
					c0.01-0.01,0.02-0.02,0.02-0.02h24.84V1145.53z M135.43,1145.53h-24.87v-23.57h24.84c0.01,0.01,0.02,0.02,0.02,0.02V1145.53z"/>
				<g>
					<path class="st7" d="M403.88,1120.04c-8.46,0-15.93,0-15.93,0v9.27c0,0,39.69,0,39.74,0c2.56,0,4.63-2.07,4.63-4.63
						s-2.07-4.63-4.63-4.63c-0.02,0-4.94,0-11.3,0c0-1.52,0-3.17,0-4.85c6.67,0,11.85,0,11.87,0c2.64,0,4.78-2.14,4.78-4.78
						s-2.14-4.78-4.78-4.78c-0.02,0-5.2,0-11.87,0c0-2.45,0-4.11,0-4.12c0-3.45-2.8-6.25-6.25-6.25c-3.45,0-6.25,2.8-6.25,6.25
						c0,0.02,0,1.67,0,4.12c-8.82,0-16.65,0-16.65,0v9.56c0,0,7.83,0,16.65,0C403.89,1116.87,403.89,1118.53,403.88,1120.04z"/>
					<path class="st7" d="M428.26,1157.49c2.64,0,4.78-2.14,4.78-4.78c0-2.64-2.14-4.78-4.78-4.78c-0.05,0-41.02,0-41.02,0v9.56
						c0,0,8.54,0,17.83,0v17.36c0,2.14-1.73,3.87-3.87,3.87h-4.15v9.03h11.05c4.04,0,7.32-3.28,7.32-7.32v-22.94
						C422.55,1157.49,428.24,1157.49,428.26,1157.49z"/>
					<path class="st7" d="M429.01,1133.98c-0.05,0-39.74,0-39.74,0v9.27c0,0,39.69,0,39.74,0c2.56,0,4.63-2.07,4.63-4.63
						C433.64,1136.05,431.57,1133.98,429.01,1133.98z"/>
					<path class="st7" d="M390.09,1160.88c0.17,9.54-3.82,9.8-3.82,9.8s0,2.38,0,9.09c14.39-0.17,14.22-18.89,14.22-18.89H390.09z"
						/>
					<path class="st7" d="M429.87,1160.88h-10.41c0,0-0.17,18.71,14.22,18.89c0-6.71,0-9.09,0-9.09S429.7,1170.43,429.87,1160.88z"
						/>
					<path class="st7" d="M472.15,1105.98H451.3c0-2.08,0-5.28,0-5.32c0-2.98-2.42-5.4-5.4-5.4c-2.98,0-5.4,2.42-5.4,5.4
						c0,0.02,0,0.8,0,1.83h-0.02c0.02,0.58,0.01,1.11,0.02,1.66c0,0.74,0,1.49,0,2.1c-0.31,15.36-5.62,19.27-5.62,19.27
						s0,2.38,0,9.09c8.62-4.21,12.75-10.92,14.68-17.12l4.01,0c0.67,22.21-2.3,53.08-15.58,59.76v10.7c0,0,1.3-0.07,2.74-0.44
						c8.88-3.04,14.39-10.56,17.83-19.8c3.55,9.33,8.98,16.95,17.31,19.8c1.44,0.37,2.74,0.44,2.74,0.44v-10.7
						c-9.06-4.56-13.31-20.37-14.89-37c0.59-8.75,0.48-16.91,0.49-22.76l4.3,0v15.07h10.96v-19.27
						C479.47,1109.26,476.19,1105.98,472.15,1105.98z"/>
				</g>
				<g>
					<path class="st7" d="M588.1,1142.72c-0.02,0-12.65,0-26.89,0v-7.32h21.59v-2.77v-8.09v-18.67h0c0,0,0-0.01,0-0.01
						c0-3.89-3.15-7.04-7.04-7.04c-0.07,0-0.19,0-0.19,0h-41.24c0,0-0.13,0-0.19,0c-3.89,0-7.04,3.15-7.04,7.04c0,0,0,0.01,0,0.01h0
						v18.67v8.09v2.77h21.34v7.32c-14.24,0-26.84,0-26.84,0v9.27c0,0,10.34,0,22.86,0c-3.67,11.63-17.64,21.8-21.12,22.45v11.89
						c6.84-0.84,19.63-11.81,25.1-19.61v21.24h12.77v-21.62c5.32,7.81,18.39,19.13,25.35,19.98v-11.89
						c-3.48-0.65-17.45-10.82-21.12-22.45c12.42,0,22.64,0,22.66,0c2.56,0,4.63-2.07,4.63-4.63
						C592.74,1144.79,590.66,1142.72,588.1,1142.72z M539.1,1124.54v-15.08h31.71v15.08h-0.01H539.1L539.1,1124.54z"/>
					<path class="st7" d="M521.71,1101.15c-0.01-3.26-2.64-5.88-5.9-5.89c-0.01,0-0.01,0-0.02,0c-3.25,0-5.89,2.64-5.91,5.89
						c-0.01,0.81-0.34,20.37-15.39,34.37v12.7c0.32-0.14,0.61-0.34,0.92-0.52c3.78-2.18,7.01-4.69,9.78-7.37v47.63h10.77v-62.81
						C521.67,1113.04,521.71,1101.84,521.71,1101.15z"/>
				</g>
				<path class="st7" d="M253.44,1142.24c-0.02,0-1.37,0-5.59,0v-27.45h0c0,0,0-0.01,0-0.01c0-3.89-3.15-7.04-7.04-7.04
					c-0.07,0-0.19,0-0.19,0h-24.04c0-4.9,0-5.99,0-6.03c0-3.66-2.97-6.62-6.62-6.62c-3.66,0-6.62,2.97-6.62,6.62
					c0,0.04,0,1.12,0,6.03h-24.04c0,0-0.13,0-0.19,0c-3.89,0-7.04,3.15-7.04,7.04c0,0,0,0.01,0,0.01h0v27.45c-3.24,0-5.15,0-5.15,0
					v10.46c0,0,16.02,0,34.37,0c-6.53,19.49-28.5,22.46-34.38,23.16v11.89c12.6-0.98,33.53-7.78,43.06-26.2
					c9.53,18.42,30.45,25.22,43.06,26.2v-11.89c-5.88-0.71-27.85-3.68-34.38-23.17c19,0,34.76,0,34.81,0c2.89,0,5.23-2.34,5.23-5.23
					C258.66,1144.58,256.32,1142.24,253.44,1142.24z M203.33,1142.24h-19.27v-23.86c0,0,17.8,0,19.27,0V1142.24z M235.83,1142.24
					h-19.27v-23.86h0.02c1.47,0,19.26,0,19.26,0l0.01,23.86C235.84,1142.24,235.84,1142.24,235.83,1142.24z"/>
				<g>
					<path class="st7" d="M360.85,1114.79c3.12,0,5.64-2.53,5.64-5.64s-2.53-5.64-5.64-5.64c-0.03,0-26.18,0-49.33,0
						c0.08-0.91,0.11-1.5,0.11-1.68c0.14-3.48-2.58-6.42-6.06-6.56c-3.48-0.13-6.43,2.57-6.58,6.05c0,0.05-0.04,0.85-0.19,2.18
						c-12.64,0-22.16,0-22.16,0v11.29c0,0,8.43,0,19.95,0c-2.89,10.37-9.2,23.92-22.89,29.97l1.52,13.1
						c1.06-0.43,2.02-0.84,2.35-0.98c4.04-1.65,7.6-3.73,10.74-6.11v36.98h11.91v-49.95c5.09-7.82,7.93-16.26,9.49-23.02
						C333.27,1114.79,360.81,1114.79,360.85,1114.79z"/>
					<path class="st7" d="M362.45,1152.9c-0.02,0-6.49,0-15.05,0v-7.83c5.41-5.73,11.78-12.48,11.8-12.5
						c0.68-0.72,1.1-1.58,1.33-2.48c0.21-0.67,0.36-1.37,0.36-2.11c0-3.87-3.14-7.01-7.01-7.01c-0.56,0-40.6,0-40.6,0v9.32h32.55
						l-4.54,4.88c-0.07,0.08-0.13,0.16-0.2,0.23l-4.08,4.37l-1.82,1.96l0.01,0.04h-0.05l-0.01,0.01v11.13c-14.64,0-29.7,0-29.7,0
						v9.39c0,0,15.06,0,29.7,0v7.5c0,2.53,0.17,7.29-2.35,7.29h-11.56v10.68h17.5c4.78,0,8.66-3.88,8.66-8.66v-16.8
						c8.57,0,15.04,0,15.05,0c2.59,0,4.69-2.1,4.69-4.69C367.15,1155,365.05,1152.9,362.45,1152.9z"/>
				</g>
				<g>
					<path class="st7" d="M642.28,1104.92c0.23-1.35,0.49-3.34,0.26-4.84c-0.43-2.77-2.09-4.8-5.38-4.8c-0.04,0-7.54,0-13.18,0
						v-0.01h-9.95v92.7h9.95v-19.22c5.64,0,13.15,0,13.18,0c3.29,0,4.95-2.04,5.38-4.8c0.23-1.5-0.03-3.49-0.26-4.84
						c-0.11-0.71-0.25-1.55-0.39-2.45c-0.87-5.28-2.14-13.19-2.25-24.64c0.11-11.45,1.38-19.36,2.25-24.64
						C642.03,1106.47,642.17,1105.63,642.28,1104.92z M629.77,1132.01c0,0.51-0.02,0.98-0.02,1.5h0.04
						c0.2,11.43,1.48,19.37,2.36,24.74c0.01,0.09,0.03,0.16,0.04,0.24c-2.51,0-5.57,0-8.22,0v-52.96c2.65,0,5.71,0,8.22,0
						c-0.01,0.09-0.02,0.16-0.04,0.24c-0.88,5.37-2.16,13.3-2.36,24.74h-0.04C629.75,1131.03,629.77,1131.51,629.77,1132.01z"/>
					<path class="st7" d="M676.02,1095.28L676.02,1095.28c-0.06-0.01-0.13,0-0.19,0c-0.06,0-0.13,0-0.19,0v0.01
						c-1.53,0.04-3.46,0.37-5.3,1.81c-17.87,13.99-24.88,15.48-25.02,15.52v11.15c0.28-0.08,2.91-0.56,6.88-1.94v5.13h47.26v-5.13
						c3.97,1.38,6.6,1.86,6.88,1.94v-11.15c-0.14-0.04-7.16-1.53-25.02-15.52C679.49,1095.65,677.55,1095.32,676.02,1095.28z
						 M661.85,1117.6c3.05-1.61,6.31-3.63,9.61-6.14h-0.02c0.63-0.47,1.29-0.96,1.99-1.52c0.8-0.63,1.64-0.77,2.31-0.79v0
						c0.03,0,0.06,0,0.08,0c0.03,0,0.06,0,0.08,0v0c0.67,0.02,1.51,0.16,2.31,0.79c0.71,0.55,1.36,1.05,1.99,1.52h-0.02
						c3.3,2.51,6.57,4.53,9.61,6.14H661.85z"/>
					<path class="st7" d="M666.48,1163.39c0.08-0.7,0.14-1.68,0.19-2.62h7.6v-25.51h0c0,0,0-0.01,0-0.01c0-3.01-2.44-5.45-5.45-5.45
						c-0.05,0-0.15,0-0.15,0h-13.19c0,0-0.1,0-0.15,0c-3.01,0-5.45,2.44-5.45,5.45c0,0,0,0.01,0,0.01h0v25.51h6.7
						c-0.1,6.82-2.08,10.25-7.19,14.53v12.67c0,0,0.7-0.07,1.68-0.44c5.37-2.13,9.02-6.43,11.16-12.2
						c2.22,5.83,5.61,10.58,10.81,12.36c0.9,0.23,1.71,0.28,1.71,0.28v-12.67c-1.32-0.81-2.34-1.57-3.17-2.38
						C667.67,1168.06,666.67,1164.52,666.48,1163.39z M659.17,1138.05h5.8v14.31h0h-5.8h0V1138.05z"/>
					<path class="st7" d="M693.99,1163.39c0.08-0.7,0.14-1.68,0.19-2.62h7.6v-25.51h0c0,0,0-0.01,0-0.01c0-3.01-2.44-5.45-5.45-5.45
						c-0.05,0-0.15,0-0.15,0h-13.19c0,0-0.1,0-0.15,0c-3.01,0-5.45,2.44-5.45,5.45c0,0,0,0.01,0,0.01h0v25.51h6.7
						c-0.1,6.82-2.08,10.25-7.19,14.53v12.67c0,0,0.7-0.07,1.68-0.44c5.37-2.13,9.02-6.43,11.16-12.2
						c2.22,5.83,5.61,10.58,10.81,12.36c0.9,0.23,1.71,0.28,1.71,0.28v-12.67c-1.32-0.81-2.34-1.57-3.17-2.38
						C695.18,1168.06,694.18,1164.52,693.99,1163.39z M686.68,1138.05h5.8v14.31h0h-5.8h0V1138.05z"/>
				</g>
				<g>
					<path class="st7" d="M894.54,1122.4c0-3.14-2.55-5.69-5.69-5.69c-0.06,0-51.96,0-51.96,0v11.39c0,0,51.9,0,51.96,0
						C892,1128.09,894.54,1125.54,894.54,1122.4z"/>
					<path class="st7" d="M892.09,1165.46v-7.68v-17.74h0c0,0,0-0.01,0-0.01c0-3.69-2.99-6.68-6.68-6.68c-0.06,0-0.18,0-0.18,0
						h-39.18c0,0-0.12,0-0.18,0c-3.69,0-6.68,2.99-6.68,6.68c0,0,0,0.01,0,0.01h0v17.74v7.68v2.63h52.91V1165.46z M880.7,1157.78
						L880.7,1157.78h-30.12h0v-14.32h30.13V1157.78z"/>
					<path class="st7" d="M902.75,1095.27h-67.23v11.83h66.31v69.1h-28.07v11.83h28.98c6.02,0,10.91-4.9,10.91-10.91v-70.93
						C913.66,1100.17,908.76,1095.27,902.75,1095.27z"/>
				</g>
				<g>
					<path class="st7" d="M796.15,1151.31h-14.84l13.93,23.84h-31.62h-15.99l25.51-43.67h-14.82l-22.82,39.04
						c-2.66,4.7-3,8.8-1.02,12.19c3.06,5.25,9.76,5.25,12.97,5.25h16.17h31.8h1.13v-0.01c3.46-0.05,9.1-0.54,11.84-5.24
						c1.98-3.39,1.64-7.5-1.02-12.19L796.15,1151.31z"/>
					<path class="st7" d="M797.31,1107.75c-0.67-1.11-1.31-2.32-1.98-3.62l-0.14-0.28c-0.17-0.33-0.31-0.65-0.45-0.95
						c-0.82-1.82-2.19-4.85-6.21-6.71c-2.03-0.93-4.14-0.94-5.55-0.91h-23.11c-1.41-0.02-3.52-0.02-5.55,0.91
						c-4.02,1.86-5.39,4.9-6.21,6.71c-0.14,0.3-0.28,0.62-0.45,0.95l-0.14,0.28c-0.67,1.29-1.3,2.51-1.98,3.62
						c-5.14,8.41-10.9,15.03-19.24,18.16v13.69c14.42-3.44,23.31-12.74,29.92-23.57c0.89-1.46,2.53-4.62,2.53-4.62
						c0.28-0.54,1.78-3.45,1.86-3.61c0.04,0,2.12,0,5.14,0c0,0,16.44,0,16.49,0c0.08,0.16,1.58,3.07,1.86,3.61
						c0,0,1.64,3.15,2.53,4.62c6.62,10.84,15.5,20.13,29.92,23.57v-13.69C808.21,1122.78,802.45,1116.16,797.31,1107.75z"/>
				</g>
			</g>
		</g>
	</g>
</g>
</svg>
