<svg xmlns="http://www.w3.org/2000/svg" width="25" height="25" viewBox="0 0 25 25">
  <g id="Group_275" data-name="Group 275" transform="translate(-491 -1053)">
    <circle id="Ellipse_15" data-name="Ellipse 15" cx="12.5" cy="12.5" r="12.5" transform="translate(491 1053)" fill="#e2231a"/>
    <path id="Icon_awesome-minus" data-name="Icon awesome-minus" d="M13,14.625H1a1,1,0,0,0-1,1v1a1,1,0,0,0,1,1H13a1,1,0,0,0,1-1v-1A1,1,0,0,0,13,14.625Z" transform="translate(497 1049.375)" fill="#fff"/>
  </g>
</svg>
