<svg id="圖層_1" data-name="圖層 1" xmlns="http://www.w3.org/2000/svg" viewBox="0 0 285 32">
	<title>tbb_logo_website</title>
	<path d="M146.18,20.21a23.09,23.09,0,0,1-.84,4.09,5.39,5.39,0,0,0-.93-.34,20.57,20.57,0,0,0,.8-3.91Zm3.36-4.58a27.41,27.41,0,0,1,1.14,3.25l-1,.37c0-.23-.14-.52-.21-.81-3.79.59-4.29.71-4.62.88a5,5,0,0,0-.36-1.1c.34-.07.72-.5,1.21-1.14a23.14,23.14,0,0,0,1.39-2,7.77,7.77,0,0,0-2.34.41c-.07-.24-.24-.8-.36-1.09.27-.07.56-.43.9-.94a22,22,0,0,0,2.18-4.28l1.07.46A25.86,25.86,0,0,1,146,14.2l1.79-.17c.42-.73.88-1.54,1.24-2.34l1,.59a34.78,34.78,0,0,1-3.73,5.65l2.93-.41c-.19-.54-.41-1.09-.6-1.58ZM147.84,20a25.69,25.69,0,0,1,.48,3.57l-.95.24c0-1-.23-2.48-.41-3.64Zm1.79-.44a25.13,25.13,0,0,1,1,3.27l-.88.32a24.21,24.21,0,0,0-1-3.3Zm9.92,3.74c0,.7-.13,1-.57,1.21a5.71,5.71,0,0,1-2.15.22,4.19,4.19,0,0,0-.32-1.12c.72,0,1.4,0,1.6,0s.29-.09.29-.33V11.11H152V24.73H150.9V10h8.65Zm-2.73-2.8a4.77,4.77,0,0,0,1-.09c0,.29.07.68.1.94a4.6,4.6,0,0,1-1.09.08h-2.17c-1.12,0-1.38-.41-1.38-1.53V18.23h-.63v-1H155a9.81,9.81,0,0,0-.66-1.49l.78-.31h-2.6v-1h3.23a17.88,17.88,0,0,0,.8-2.81l.92.27c-.26.84-.56,1.81-.83,2.54H158v1h-2.85a12.28,12.28,0,0,1,.74,1.53l-.61.27h2.52v1h-3.5V19.9c0,.44,0,.58.4.58Zm-3-8.89a8.06,8.06,0,0,1,.92,2.41l-.82.29a8.88,8.88,0,0,0-.88-2.43Z" style="fill:#404040" />
	<path d="M175.77,11.21a13,13,0,0,1-2.48,4.53,11.36,11.36,0,0,0,3.88,2.49,5,5,0,0,0-.79,1l-.54-.24v5.59h-1.21v-.56h-4.25v.62h-1.17V19c-.34.17-.68.32-1,.47a4,4,0,0,0-.61-.85h-1.79v3l2.23-.52.12,1.14-6.51,1.58-.24-1.23.87-.18v-5.8h1.07v5.58l1.31-.31V15.07h-2.38V9.89h5.49v4.5a12.38,12.38,0,0,0,3.08-5.22l1.2.29c-.17.5-.35,1-.54,1.45h3.28l.22-.05ZM163.38,14h3.2V11h-3.2Zm4.52,4.37a11.87,11.87,0,0,0,3.84-2.66,15,15,0,0,1-1.56-2.32,12.42,12.42,0,0,1-1.55,2,6.43,6.43,0,0,0-.88-.75v.51h-2v2.45h2.11Zm7.14.23a12.76,12.76,0,0,1-2.51-2,13.68,13.68,0,0,1-2.55,2Zm-.41,4.37V19.68h-4.25v3.26ZM171,12l-.17.33a14.23,14.23,0,0,0,1.69,2.55A11.2,11.2,0,0,0,174.21,12Z" style="fill:#404040" />
	<path d="M184.92,21.63,185,22.7c-2.16.51-4.46,1.08-6.12,1.45l-.34-1.21c.75-.13,1.73-.34,2.77-.56V17.54h-2.58V16.41h2.58V14.58h-1.68v-.82c-.26.22-.51.43-.77.62a5.92,5.92,0,0,0-.58-1.19,12.06,12.06,0,0,0,3.66-4l1.07.39a5.21,5.21,0,0,1-.34.59,30.58,30.58,0,0,1,2.7,2.38l-.78.9a25.37,25.37,0,0,0-2.55-2.36A14.82,14.82,0,0,1,180,13.47h4.25v1.11h-1.77v1.83h2.36v1.13h-2.36v4.62Zm-4.83-3.21a17.59,17.59,0,0,1,.75,3.15l-.94.25a19.71,19.71,0,0,0-.69-3.18Zm2.81,2.86a26,26,0,0,0,.83-3.1l1,.31c-.33,1-.7,2.28-1,3.06Zm10.93-2.5a22.43,22.43,0,0,1-2.71,1.9,7.35,7.35,0,0,0,2.94,2.77,4,4,0,0,0-.86,1.06c-2.33-1.31-3.83-4-4.63-7.14h-1.42v5.52l2.82-.8a7.54,7.54,0,0,0,.12,1.12c-3.56,1.11-4.08,1.3-4.41,1.53a3.28,3.28,0,0,0-.44-1.08,1,1,0,0,0,.68-1V9.94h7.21v7.43h-3.45a12,12,0,0,0,.93,2.39A16.58,16.58,0,0,0,193,17.89ZM187.15,11v2h4.76V11Zm0,5.2h4.76v-2.1h-4.76Z" style="fill:#404040" />
	<path d="M201.12,13.24a21.64,21.64,0,0,1-1.87,2.56v8.94H198V17.2A19.07,19.07,0,0,1,196.07,19c-.19-.25-.63-.79-.88-1.05A18.52,18.52,0,0,0,200,12.79Zm-.66-3.59a21.22,21.22,0,0,1-4.35,4.22,11,11,0,0,0-.75-1,16.78,16.78,0,0,0,3.89-3.69Zm10.42,6.41h-2.57v7c0,.78-.19,1.17-.75,1.37a12.62,12.62,0,0,1-3.19.19,4.39,4.39,0,0,0-.41-1.22c1.21,0,2.33,0,2.65,0s.43-.09.43-.38v-7h-5.68V14.85h9.52Zm-.5-4.66h-8.29V10.21h8.29Z" style="fill:#404040" />
	<path d="M215.13,11.42a12.23,12.23,0,0,1-1.77,2.19,8.88,8.88,0,0,0-.88-.83,10.57,10.57,0,0,0,2.6-3.71l1.12.31c-.15.34-.31.68-.49,1h4.38v1h-3.21a14.7,14.7,0,0,1,1.48,1.48l-.84.69a19.34,19.34,0,0,0-1.58-1.68l.65-.49Zm5.18,1.2a8.17,8.17,0,0,1,.68,1.31h6.19V16.7h-1.26V14.94H214.69V16.7h-1.23V13.93h6.24a10.48,10.48,0,0,0-.51-1.07Zm-3.72,7.91H226v4.15h-1.24v-.55h-8.18v.58h-1.26V16h9.79v3.39h-8.53Zm0-3.59v1.45h7.29V16.94Zm0,4.57v1.64h8.18V21.51Zm11.27-11.1v1h-3.65A17.84,17.84,0,0,1,226,13l-.85.75A16.09,16.09,0,0,0,223.3,12l.74-.59H222.1a8.45,8.45,0,0,1-1.24,1.39,7.61,7.61,0,0,0-1-.75,6.92,6.92,0,0,0,2.11-3l1.16.29a8.27,8.27,0,0,1-.48,1.05Z" style="fill:#404040" />
	<path d="M234.92,21.19c-1.82.61-3.76,1.28-5.27,1.77l-.29-1.28c.63-.18,1.41-.42,2.28-.71V16.4H229.7V15.21h1.94V11.52h-2.11V10.33h5.27v1.19h-2v3.69h1.72V16.4h-1.72v4.2l1.85-.62ZM245.06,23v1.16H234.12V23h5.16V20.66h-3.85V19.51h3.85v-2h-3.65V10h8.64v7.56h-3.71v2h4v1.15h-4V23Zm-8.27-9.79h2.58V11.06h-2.58Zm0,3.21h2.58V14.24h-2.58Zm6.27-5.35h-2.6V13.2h2.6Zm0,3.18h-2.6v2.17h2.6Z" style="fill:#404040" />
	<path d="M251.41,13a21.66,21.66,0,0,1-1.5,2.36v9.38H248.7v-7.9a13.89,13.89,0,0,1-1.59,1.58,8.23,8.23,0,0,0-.74-1.11,15.3,15.3,0,0,0,3.91-4.71ZM251,9.62a17.9,17.9,0,0,1-3.8,4c-.16-.25-.5-.68-.69-.91a13.28,13.28,0,0,0,3.34-3.54Zm9.44,8.6a9.42,9.42,0,0,1-3.23,3.94,16.85,16.85,0,0,0,4.48,1.48,4.84,4.84,0,0,0-.76,1.09,16,16,0,0,1-4.81-1.86,18.29,18.29,0,0,1-5,1.89,3.93,3.93,0,0,0-.61-1.09A16.56,16.56,0,0,0,255,22.16a11.92,11.92,0,0,1-1.88-1.73,15.1,15.1,0,0,1-1.35,1.12,7.47,7.47,0,0,0-.86-.94,10.71,10.71,0,0,0,1.46-1.12,11,11,0,0,1-.82-1.27l1-.36a9.87,9.87,0,0,0,.54.88,11.63,11.63,0,0,0,1.59-2.12,13.53,13.53,0,0,0-3.2.34,10,10,0,0,0-.39-1.17,5.93,5.93,0,0,0,1.89-.82c.39-.2,1.17-.7,2.12-1.31a13.32,13.32,0,0,0-3.25.31,6.81,6.81,0,0,0-.41-1.23,3.16,3.16,0,0,0,1.13-.59,20.54,20.54,0,0,0,3-2.79l1.24.54a23.3,23.3,0,0,1-3.23,2.83l3-.11c.76-.56,1.55-1.19,2.24-1.81l1.16.64a38.5,38.5,0,0,1-6.17,4.17l5.32-.29c-.39-.5-.78-1-1.16-1.41l1-.51a27.66,27.66,0,0,1,2.79,3.67l-1,.59a14.34,14.34,0,0,0-.88-1.39l-3.78.24a12.5,12.5,0,0,1-.81,1.36h4.16l.2-.05Zm-5.92.71c-.2.26-.41.49-.63.73a10.08,10.08,0,0,0,2.23,1.85,8.53,8.53,0,0,0,2.6-2.58Z" style="fill:#404040" />
	<path d="M273.86,11.11A27.33,27.33,0,0,1,278.35,16l-1.07.77a11.64,11.64,0,0,0-1-1.47c-9.7.55-10.69.58-11.35.82a8.94,8.94,0,0,0-.41-1.24,3.32,3.32,0,0,0,1.38-1,28.79,28.79,0,0,0,3.91-4.8l1.24.56a37.79,37.79,0,0,1-4.35,5l8.66-.42a29.15,29.15,0,0,0-2.46-2.5Zm-8.07,6.48H276.6v7.07h-1.33v-.88h-8.21v.91h-1.27Zm1.27,1.2v3.76h8.21V18.79Z" style="fill:#404040" />
	<path d="M58.2,25.93v.89H56.46v4.76h-1V26.82H53.69v-.89Z" style="fill:#404040" />
	<path d="M60.19,27.21a2.41,2.41,0,0,1,.82.12,1.32,1.32,0,0,1,.54.34,1.27,1.27,0,0,1,.28.54,2.5,2.5,0,0,1,.09.69v2.58a5.8,5.8,0,0,1-.69.12,6.54,6.54,0,0,1-1,.07,3.08,3.08,0,0,1-.7-.07,1.48,1.48,0,0,1-.54-.24,1.1,1.1,0,0,1-.35-.42,1.42,1.42,0,0,1-.13-.65,1.32,1.32,0,0,1,.14-.62,1.27,1.27,0,0,1,.39-.41,1.62,1.62,0,0,1,.57-.23,3.53,3.53,0,0,1,.67-.07l.34,0,.39.07v-.16a1.75,1.75,0,0,0,0-.33.72.72,0,0,0-.15-.27.59.59,0,0,0-.27-.18,1,1,0,0,0-.42-.07,4.13,4.13,0,0,0-.63.05,2.84,2.84,0,0,0-.46.11l-.12-.8a5.46,5.46,0,0,1,.54-.13A4.72,4.72,0,0,1,60.19,27.21Zm.08,3.68a4,4,0,0,0,.7-.05V29.75a1.11,1.11,0,0,0-.24-.05,1.87,1.87,0,0,0-.34,0,1.84,1.84,0,0,0-.33,0,.75.75,0,0,0-.31.09.46.46,0,0,0-.21.18.48.48,0,0,0-.08.3.51.51,0,0,0,.22.48A1.09,1.09,0,0,0,60.27,30.89Z" style="fill:#404040" />
	<path d="M64.07,26.07a.57.57,0,0,1-.18.44.66.66,0,0,1-.86,0,.57.57,0,0,1-.18-.44.58.58,0,0,1,.18-.45.63.63,0,0,1,.86,0A.58.58,0,0,1,64.07,26.07ZM64,31.58H63V27.31h1Z" style="fill:#404040" />
	<path d="M67.6,28.9c-.12.48-.26.94-.4,1.4s-.29.88-.43,1.28H66c-.11-.25-.22-.53-.34-.86s-.24-.66-.36-1S65,29,64.9,28.55s-.24-.82-.35-1.24h1c0,.23.11.48.17.74l.21.81c.07.28.14.54.22.8s.15.5.23.72l.24-.77c.08-.27.15-.54.23-.8s.13-.53.2-.78.11-.49.16-.72H68c0,.23.1.46.17.72s.12.51.19.78.14.53.22.8l.24.77.22-.72c.08-.26.15-.52.22-.8s.15-.54.21-.81.13-.51.17-.74h1c-.11.42-.23.83-.35,1.24s-.23.78-.36,1.15-.24.7-.36,1-.23.61-.35.86h-.8c-.14-.4-.29-.83-.44-1.28S67.73,29.38,67.6,28.9Z" style="fill:#404040" />
	<path d="M72.68,27.21a2.49,2.49,0,0,1,.82.12,1.35,1.35,0,0,1,.53.34,1.28,1.28,0,0,1,.29.54,2.51,2.51,0,0,1,.08.69v2.58a5.8,5.8,0,0,1-.69.12,6.41,6.41,0,0,1-1,.07A3.11,3.11,0,0,1,72,31.6a1.48,1.48,0,0,1-.54-.24,1.1,1.1,0,0,1-.35-.42,1.42,1.42,0,0,1-.13-.65,1.21,1.21,0,0,1,.15-.62,1.15,1.15,0,0,1,.38-.41,1.8,1.8,0,0,1,.57-.23,3.71,3.71,0,0,1,.67-.07l.34,0,.39.07v-.16a1.19,1.19,0,0,0,0-.33.87.87,0,0,0-.14-.27.64.64,0,0,0-.27-.18,1,1,0,0,0-.42-.07,4,4,0,0,0-.63.05,3,3,0,0,0-.47.11l-.12-.8.55-.13A4.63,4.63,0,0,1,72.68,27.21Zm.08,3.68a3.9,3.9,0,0,0,.69-.05V29.75a1,1,0,0,0-.24-.05,1.79,1.79,0,0,0-.34,0,1.84,1.84,0,0,0-.33,0,.75.75,0,0,0-.3.09A.55.55,0,0,0,72,30a.56.56,0,0,0-.08.3.51.51,0,0,0,.22.48A1.16,1.16,0,0,0,72.76,30.89Z" style="fill:#404040" />
	<path d="M75.45,27.45c.19-.05.44-.1.74-.15a6.27,6.27,0,0,1,1-.08,2.19,2.19,0,0,1,.87.15,1.25,1.25,0,0,1,.56.4,1.56,1.56,0,0,1,.3.62,3.25,3.25,0,0,1,.08.79v2.4H78V29.34a3.25,3.25,0,0,0,0-.59,1,1,0,0,0-.15-.39.59.59,0,0,0-.27-.22,1.33,1.33,0,0,0-.43-.07,2.56,2.56,0,0,0-.39,0l-.3,0v3.44h-1Z" style="fill:#404040" />
	<path d="M83.55,31.65q-.45,0-.9,0a4.35,4.35,0,0,1-.81-.12V26l.39-.06.42-.05.41,0h.4a5.61,5.61,0,0,1,1,.08,2.4,2.4,0,0,1,.77.25,1.3,1.3,0,0,1,.68,1.2,1.19,1.19,0,0,1-.19.69,1.44,1.44,0,0,1-.54.46,1.3,1.3,0,0,1,1,1.35,1.5,1.5,0,0,1-.64,1.31A3.47,3.47,0,0,1,83.55,31.65Zm-.69-3.42h.72a2.14,2.14,0,0,0,.93-.17.68.68,0,0,0,0-1.18,2.09,2.09,0,0,0-.9-.17h-.42l-.31,0Zm0,.81v1.72l.36,0h.36a3.65,3.65,0,0,0,.59,0,2,2,0,0,0,.48-.14.87.87,0,0,0,.32-.28.82.82,0,0,0,.11-.44.69.69,0,0,0-.35-.67,2.12,2.12,0,0,0-1-.18Z" style="fill:#404040" />
	<path d="M90.49,31.45c-.19.05-.43.1-.74.15a6.14,6.14,0,0,1-1,.08,2.14,2.14,0,0,1-.86-.15,1.32,1.32,0,0,1-.56-.41,1.56,1.56,0,0,1-.3-.62,3.32,3.32,0,0,1-.09-.8V27.31h1v2.24a1.84,1.84,0,0,0,.2,1,.81.81,0,0,0,.7.29h.38l.3,0V27.31h1Z" style="fill:#404040" />
	<path d="M92.66,30.87a1.35,1.35,0,0,0,.57-.09.33.33,0,0,0,.18-.32.45.45,0,0,0-.19-.36,3,3,0,0,0-.64-.3,3.14,3.14,0,0,1-.49-.21,1.53,1.53,0,0,1-.39-.25,1.19,1.19,0,0,1-.26-.36,1.29,1.29,0,0,1-.09-.51,1.09,1.09,0,0,1,.43-.92A1.84,1.84,0,0,1,93,27.21a3.38,3.38,0,0,1,.72.07,3.33,3.33,0,0,1,.51.13l-.18.8a2.35,2.35,0,0,0-.42-.13A2.52,2.52,0,0,0,93,28a1,1,0,0,0-.49.1.33.33,0,0,0-.19.31.38.38,0,0,0,0,.19.4.4,0,0,0,.12.15,1.27,1.27,0,0,0,.24.14,3.42,3.42,0,0,0,.36.14,4.89,4.89,0,0,1,.59.26,1.64,1.64,0,0,1,.41.28,1.1,1.1,0,0,1,.23.37,1.41,1.41,0,0,1,.07.49,1,1,0,0,1-.45.92,2.23,2.23,0,0,1-1.29.32,3.22,3.22,0,0,1-.91-.1,3.56,3.56,0,0,1-.48-.15l.17-.82a3.69,3.69,0,0,0,.53.17A2.93,2.93,0,0,0,92.66,30.87Z" style="fill:#404040" />
	<path d="M96.25,26.07a.57.57,0,0,1-.18.44.58.58,0,0,1-.42.16.6.6,0,0,1-.43-.16.57.57,0,0,1-.18-.44.58.58,0,0,1,.18-.45.61.61,0,0,1,.43-.17.59.59,0,0,1,.42.17A.58.58,0,0,1,96.25,26.07Zm-.1,5.51h-1V27.31h1Z" style="fill:#404040" />
	<path d="M97.24,27.45c.19-.05.44-.1.74-.15a6.4,6.4,0,0,1,1-.08,2.26,2.26,0,0,1,.87.15,1.37,1.37,0,0,1,.56.4,1.55,1.55,0,0,1,.29.62,3.24,3.24,0,0,1,.09.79v2.4h-1V29.34a3.25,3.25,0,0,0,0-.59.86.86,0,0,0-.14-.39.62.62,0,0,0-.28-.22,1.33,1.33,0,0,0-.43-.07l-.39,0-.3,0v3.44h-1Z" style="fill:#404040" />
	<path d="M101.61,29.47a2.7,2.7,0,0,1,.17-1,2.05,2.05,0,0,1,.45-.71,1.93,1.93,0,0,1,.63-.42,2.11,2.11,0,0,1,.74-.14,1.77,1.77,0,0,1,1.37.54,2.38,2.38,0,0,1,.5,1.64c0,.05,0,.11,0,.18s0,.13,0,.18h-2.81a1.08,1.08,0,0,0,.36.8,1.34,1.34,0,0,0,.93.28,3.37,3.37,0,0,0,.66-.06,3.47,3.47,0,0,0,.47-.14l.13.8-.22.09-.33.08a2.4,2.4,0,0,1-.4.06,3,3,0,0,1-.43,0,2.64,2.64,0,0,1-1-.17,2,2,0,0,1-.69-.46,2,2,0,0,1-.39-.71A2.75,2.75,0,0,1,101.61,29.47Zm2.87-.44a1.23,1.23,0,0,0-.06-.39.9.9,0,0,0-.17-.32.75.75,0,0,0-.26-.21.92.92,0,0,0-.38-.08.82.82,0,0,0-.4.09.82.82,0,0,0-.29.22,1.13,1.13,0,0,0-.19.32,2.22,2.22,0,0,0-.09.37Z" style="fill:#404040" />
	<path d="M107.42,30.87a1.35,1.35,0,0,0,.57-.09.33.33,0,0,0,.18-.32.45.45,0,0,0-.19-.36,3,3,0,0,0-.64-.3,3.14,3.14,0,0,1-.49-.21,1.53,1.53,0,0,1-.39-.25,1,1,0,0,1-.25-.36,1.13,1.13,0,0,1-.1-.51,1.09,1.09,0,0,1,.43-.92,1.84,1.84,0,0,1,1.18-.34,3.38,3.38,0,0,1,.72.07,3.33,3.33,0,0,1,.51.13l-.18.8a2.35,2.35,0,0,0-.42-.13,2.46,2.46,0,0,0-.58-.06,1,1,0,0,0-.49.1.33.33,0,0,0-.19.31.38.38,0,0,0,0,.19.4.4,0,0,0,.12.15,1.27,1.27,0,0,0,.24.14,3.42,3.42,0,0,0,.36.14,4.89,4.89,0,0,1,.59.26,1.64,1.64,0,0,1,.41.28,1.1,1.1,0,0,1,.23.37,1.41,1.41,0,0,1,.07.49,1,1,0,0,1-.45.92,2.23,2.23,0,0,1-1.29.32,3.22,3.22,0,0,1-.91-.1,3.56,3.56,0,0,1-.48-.15l.17-.82a3.69,3.69,0,0,0,.53.17A2.87,2.87,0,0,0,107.42,30.87Z" style="fill:#404040" />
	<path d="M111,30.87a1.35,1.35,0,0,0,.57-.09.33.33,0,0,0,.18-.32.42.42,0,0,0-.19-.36,3.12,3.12,0,0,0-.63-.3,3.26,3.26,0,0,1-.5-.21,1.67,1.67,0,0,1-.38-.25,1,1,0,0,1-.26-.36,1.29,1.29,0,0,1-.09-.51,1.09,1.09,0,0,1,.43-.92,1.83,1.83,0,0,1,1.17-.34,3.38,3.38,0,0,1,.72.07,3.51,3.51,0,0,1,.52.13l-.18.8a2.35,2.35,0,0,0-.42-.13,2.55,2.55,0,0,0-.59-.06,1,1,0,0,0-.49.1.33.33,0,0,0-.18.31.54.54,0,0,0,0,.19.58.58,0,0,0,.13.15,1.27,1.27,0,0,0,.24.14,2.53,2.53,0,0,0,.35.14,4.46,4.46,0,0,1,.6.26,1.57,1.57,0,0,1,.4.28,1,1,0,0,1,.24.37,1.41,1.41,0,0,1,.07.49,1,1,0,0,1-.45.92,2.29,2.29,0,0,1-1.3.32,3.19,3.19,0,0,1-.9-.1,3.56,3.56,0,0,1-.48-.15l.17-.82a3.53,3.53,0,0,0,.52.17A3,3,0,0,0,111,30.87Z" style="fill:#404040" />
	<path d="M117,31.65q-.45,0-.9,0a4.35,4.35,0,0,1-.81-.12V26l.39-.06.42-.05.41,0h.4a5.83,5.83,0,0,1,1,.08,2.43,2.43,0,0,1,.76.25,1.3,1.3,0,0,1,.68,1.2,1.19,1.19,0,0,1-.19.69,1.44,1.44,0,0,1-.54.46,1.43,1.43,0,0,1,.76.5,1.36,1.36,0,0,1,.25.85,1.5,1.5,0,0,1-.64,1.31A3.47,3.47,0,0,1,117,31.65Zm-.69-3.42H117a2.18,2.18,0,0,0,.93-.17.68.68,0,0,0,0-1.18,2.09,2.09,0,0,0-.9-.17h-.42l-.31,0Zm0,.81v1.72l.36,0H117a3.57,3.57,0,0,0,.59,0,2,2,0,0,0,.48-.14.87.87,0,0,0,.32-.28.82.82,0,0,0,.11-.44.69.69,0,0,0-.35-.67,2.12,2.12,0,0,0-1-.18Z" style="fill:#404040" />
	<path d="M121.83,27.21a2.51,2.51,0,0,1,.83.12,1.35,1.35,0,0,1,.53.34,1.28,1.28,0,0,1,.29.54,2.51,2.51,0,0,1,.08.69v2.58a5.8,5.8,0,0,1-.69.12,6.46,6.46,0,0,1-1,.07,3.08,3.08,0,0,1-.7-.07,1.48,1.48,0,0,1-.54-.24,1.1,1.1,0,0,1-.35-.42,1.42,1.42,0,0,1-.13-.65,1.32,1.32,0,0,1,.14-.62,1.27,1.27,0,0,1,.39-.41,1.71,1.71,0,0,1,.57-.23,3.62,3.62,0,0,1,.67-.07l.34,0,.39.07v-.16a1.75,1.75,0,0,0,0-.33.72.72,0,0,0-.15-.27.54.54,0,0,0-.27-.18,1,1,0,0,0-.41-.07,4,4,0,0,0-.63.05,3,3,0,0,0-.47.11l-.12-.8.55-.13A4.59,4.59,0,0,1,121.83,27.21Zm.08,3.68a4,4,0,0,0,.7-.05V29.75a1,1,0,0,0-.24-.05,1.79,1.79,0,0,0-.34,0,1.84,1.84,0,0,0-.33,0,.75.75,0,0,0-.3.09.49.49,0,0,0-.22.18.56.56,0,0,0-.08.3.51.51,0,0,0,.22.48A1.12,1.12,0,0,0,121.91,30.89Z" style="fill:#404040" />
	<path d="M124.61,27.45c.19-.05.44-.1.74-.15a6.18,6.18,0,0,1,1-.08,2.28,2.28,0,0,1,.88.15,1.27,1.27,0,0,1,.55.4,1.56,1.56,0,0,1,.3.62,3.84,3.84,0,0,1,.08.79v2.4h-1V29.34a3.25,3.25,0,0,0,0-.59,1,1,0,0,0-.15-.39.59.59,0,0,0-.27-.22,1.33,1.33,0,0,0-.43-.07,2.56,2.56,0,0,0-.39,0l-.31,0v3.44h-1Z" style="fill:#404040" />
	<path d="M130.21,29l1.51-1.67h1.17l-1.77,1.91L133,31.58h-1.14l-1.64-2v2h-1V25.41l1-.16Z" style="fill:#404040" />
	<path d="M61.52,7.91H55.68v1H69.37a.36.36,0,0,0,.38-.35V7.91H63.9v-.8h6.47a.36.36,0,0,0,.37-.34V6.09H63.9V5.17H61.52v.92H54.68v1h6.84ZM63.9,19.54h5.47a.37.37,0,0,0,.38-.35v-.63H63.9v-.7h3.77A1.28,1.28,0,0,0,69,16.64V16.1H66.63v.48a.31.31,0,0,1-.32.3H58.75L60,15.55h8.66a.36.36,0,0,0,.38-.34v-.6H56.43v.94h1l-1,1.07a.71.71,0,0,0-.19.48.79.79,0,0,0,.82.76h4.37v.7H55.68v1h5.84v.69H53.69v1.18H71.36a.36.36,0,0,0,.38-.35v-.83H63.9Zm5.45-10H56.07a.39.39,0,0,0-.39.3v2.6H68.42a1.28,1.28,0,0,0,1.33-1.22V9.87A.38.38,0,0,0,69.35,9.51Zm-1.56,1.71a.31.31,0,0,1-.33.29H57.64V10.39H67.79ZM70.42,13H54.09a.38.38,0,0,0-.4.36V16h2V14h13.8a.31.31,0,0,1,.33.3V16h2v-1.7A1.27,1.27,0,0,0,70.42,13Z" style="fill:#404040" />
	<path d="M77.82,9.31,76.61,5.88a.4.4,0,0,0-.39-.25H74.59L75.9,9.31ZM87.88,6.85V6.2H86.34v-1H84.56v1H83v1h4.46A.38.38,0,0,0,87.88,6.85Zm-.39,1.53V7.81H83.4v.92h3.69A.38.38,0,0,0,87.49,8.38ZM83.4,10.3h3.69a.37.37,0,0,0,.4-.34V9.39H83.4Zm0,4h2.89a1.2,1.2,0,0,0,1.28-1.1v-2a.36.36,0,0,0-.38-.34H83.74a.37.37,0,0,0-.38.28Zm1.41-2.66h1.35V13.3a.29.29,0,0,1-.31.27h-1Zm-6.57-1a.7.7,0,0,0,.75.66h1V14.4h1.34V13.12l1.4.53v-.84a.35.35,0,0,0-.24-.33L81.31,12v-.71h.22a1.3,1.3,0,0,0,1.38-1.22V9.52H81.3v.65a.32.32,0,0,1-.34.3H80l2.21-2.85a.07.07,0,0,0,0-.06.12.12,0,0,0-.13-.11H80.18l1.71-2.2H80.28a.43.43,0,0,0-.34.16L78.32,7.5a.58.58,0,0,0-.12.36.71.71,0,0,0,.75.66h.75l-1.38,1.79A.6.6,0,0,0,78.2,10.67Zm-1.59.08a.4.4,0,0,0-.39-.25H74.59L76.53,16l-1.94,5.46h1.63a.4.4,0,0,0,.39-.25l1.68-4.73a1.45,1.45,0,0,0,0-.95Zm14.65,7.66H80.94l.23-.81h9.39a1.2,1.2,0,0,0,1.28-1.1V15.27a.36.36,0,0,0-.38-.33H79.25v1H89.71v.49a.29.29,0,0,1-.31.27H79.58a.37.37,0,0,0-.38.25l-.46,1.59a.45.45,0,0,0,0,.16.72.72,0,0,0,.73.67H89.91l-.17.77a.32.32,0,0,1-.33.24H81.16l.08.69a.45.45,0,0,0,.45.35h8.88a1.29,1.29,0,0,0,1.31-.95l.22-1.22a.86.86,0,0,0,0-.16A.85.85,0,0,0,91.26,18.41ZM79.35,13.87a9,9,0,0,0,.22-2H78.49a8.27,8.27,0,0,1-.35,2.31H79A.41.41,0,0,0,79.35,13.87Zm12-2.54a1.31,1.31,0,0,0,1.39-1.22V9.52H91.13v.65a.32.32,0,0,1-.34.3h-.94l2.21-2.85a.14.14,0,0,0,0-.06A.12.12,0,0,0,92,7.45H90l1.7-2.2H90.1a.46.46,0,0,0-.34.16L88.14,7.5a.65.65,0,0,0-.12.36.72.72,0,0,0,.76.66h.75l-1.39,1.79a.67.67,0,0,0-.12.36.71.71,0,0,0,.76.66h1V14.4h1.33V13.12l1.41.53v-.84a.35.35,0,0,0-.25-.33L91.13,12v-.71Zm-2.17,2.54a9.82,9.82,0,0,0,.21-2H88.31A8.31,8.31,0,0,1,88,14.15h.8A.41.41,0,0,0,89.18,13.87Z" style="fill:#404040" />
	<path d="M105.61,15.11h6a.36.36,0,0,0,.38-.34v-1h-6.36V8.71h-2.09V20.08H99.17a.31.31,0,0,1-.33-.3V13.36h-2v6.83a1.27,1.27,0,0,0,1.32,1.22h14.11a.36.36,0,0,0,.38-.35v-1h-7Zm-6.88-4.22a17.14,17.14,0,0,0,2.55-4h6.31l2.27,3.77a1,1,0,0,0,.84.43h2l-3.25-5.22a1,1,0,0,0-.85-.43H99.92a.79.79,0,0,0-.72.45,24.42,24.42,0,0,1-3.52,5.2h2.47A.79.79,0,0,0,98.73,10.89Z" style="fill:#404040" />
	<path d="M120.69,11.14h1.9a.35.35,0,0,0,.36-.34V9.93h-6v1.21h1.91v2.11h-2.44v1.21h2.44v5.75h-.58a.32.32,0,0,1-.33-.3V15.79h-1.53V20.2a1.28,1.28,0,0,0,1.33,1.22h5.2a.35.35,0,0,0,.36-.34v-.87h-2.61V14.46h2.25a.35.35,0,0,0,.36-.34v-.87h-2.61Zm.65,8.31h1.18a.34.34,0,0,0,.33-.29l.18-3.88h-1.46Zm.73-14.25h-3.78a.63.63,0,0,0-.62.44,11.3,11.3,0,0,1-1.74,3.54h1.79a.6.6,0,0,0,.51-.24,9.33,9.33,0,0,0,1.15-2.53H121l.58,2.33a.58.58,0,0,0,.56.44h1.42l-.89-3.55A.58.58,0,0,0,122.07,5.2Zm4.05,14.61V13.72H131a1.25,1.25,0,0,0,1.28-1.22V5.85a.38.38,0,0,0-.39-.37h-7.18a.38.38,0,0,0-.38.31V20a1.41,1.41,0,0,0,1.44,1.37H127a.6.6,0,0,0,.58-.5l.09-.76h-1.18A.35.35,0,0,1,126.12,19.81Zm0-9.54h3.14a.37.37,0,0,0,.37-.35v-1h-3.51V6.69h4.27v5.52a.31.31,0,0,1-.31.3h-4Zm3.34,7.37,2.83-3h-2.1a.86.86,0,0,0-.62.28l-2.22,2.36a.57.57,0,0,0-.18.4.58.58,0,0,0,.18.4l2.94,3.06a.82.82,0,0,0,.61.28H133Z" style="fill:#404040" />
	<path d="M46.07,15.15l-11-14H12.45l-11,14A2,2,0,0,0,1,16.39a2.06,2.06,0,0,0,.42,1.24l11,14H35l11-14a2.06,2.06,0,0,0,.42-1.24A2,2,0,0,0,46.07,15.15ZM19.89,30.72,8.58,16.39,19.89,2.05Zm7.69,0V2.05L38.89,16.39Z" style="fill:#ed6c1e" />
</svg>
