<svg xmlns="http://www.w3.org/2000/svg" width="17" height="17" viewBox="0 0 17 17">
    <g fill="none" fill-rule="evenodd" stroke="#FFF" stroke-linecap="round" stroke-width="2">
        <path d="M1.3 1.3l14.18 14.18M15.7 1.3L1.52 15.48"/>
    </g>
</svg>
