﻿i18n{LB.X0004}

i18n{LB.Inquiry_time}：${CMQTIME}

i18n{LB.Inquiry_period_1}：${CMPERIOD}

i18n{LB.W0132}：${LCNO}

i18n{LB.Total_records}：${CMRECNUM}  i18n{LB.Rows}

              i18n{LB.W0089}                           i18n{LB.L/C_no}         i18n{LB.W0174}            i18n{LB.Currency}       i18n{LB.W0094}        i18n{LB.X0005}        i18n{LB.W0108}         i18n{LB.W0109}            i18n{LB.Note}
===================================================================================================================================================================================================================================================================
 ${ROPENDAT,[22/25/22],B} ${RLCNO,[37/37/37],B} ${RBENNAME,[15/17/15],B} ${RLCCCY,[16/20/16],B} ${RORIGAMT,[15/20/15],B} ${RLCOS,[16/20/16],B} ${REXPDATE,[20/30/20],B} ${RSHPDATE,[19/33/19],B} ${RMARK,[16/24/16],B}

 i18n{LB.W0121}：
 ${SDATM}
 i18n{LB.W0122}：
 ${SDBAL}