<svg xmlns="http://www.w3.org/2000/svg" width="17.44" height="12.573" viewBox="0 0 17.44 12.573">
  <g id="Group_271" data-name="Group 271" transform="translate(-194.268 -849.522)">
    <path id="Path_2" data-name="Path 2" d="M195.678,850.932l6.03,5.2-6.03,4.566" fill="none" stroke="#ed6d00" stroke-linecap="round" stroke-linejoin="round" stroke-width="2"/>
    <path id="Path_3" data-name="Path 3" d="M195.678,850.932l6.03,5.2-6.03,4.566" transform="translate(9)" fill="none" stroke="#ed6d00" stroke-linecap="round" stroke-linejoin="round" stroke-width="2"/>
  </g>
</svg>
